0.919724635582
0.91531539409
0.91272428084
0.925223236622
0.916036379321
0.919117460869
0.921425845317
0.910914811557
0.918172261856
0.916212035267
0.9151474106
0.912026806293
0.920774011275
0.912990670051
0.914770806274
0.916448008337
0.913556369201
0.919344498556
0.915880123223
0.922458889289
0.929084714866
0.918301159617
0.920937038607
0.915708128956
0.915864868658
0.908294803259
0.913769081799
0.921956465683
0.907902997153
0.909573055472
0.922860467601
0.910853784617
0.918311388749
0.918310010302
0.912556000208
0.919814807619
0.917980823959
0.920747329391
0.923728740333
0.922485184364
0.924137886618
0.919543455978
0.914297777959
0.906496806668
0.91664813398
0.913580750396
0.919729400091
0.919674946264
0.912636218923
0.917784385
0.920759973074
0.913892636925
0.925821362138
0.918747578715
0.921572628321
0.905206135112
0.92006350952
0.918084474549
0.921798125549
0.906431431753
0.920682034144
0.906172714283
0.913780837488
0.921588724778
0.920019241277
0.912669323131
0.913564324182
0.911658474512
0.915491264289
0.918731531505
0.917739848635
0.914057403433
0.922972548166
0.924319352152
0.904130257106
0.917297884889
0.913182927185
0.918209971111
0.908572072362
0.912031051642
0.901357965827
0.915077989114
0.91522016357
0.91459138354
0.920331891873
0.919110900504
0.918818960453
0.917090550651
0.920859863223
0.915918247441
0.912645517031
0.927462053915
0.912652295495
0.917833209795
0.911793508083
0.920189635541
0.915767293952
0.921905382533
0.912217948136
0.917169411232
