0.987571900605
0.985798476393
0.987591711226
0.994700713797
0.98231910779
0.986669508347
0.977036320955
0.987184833269
0.986584841899
0.975868930161
0.996733214186
0.982504348529
0.981947039346
0.989449610766
0.990427260352
0.979432612132
0.996776129597
0.994703957127
0.981803949249
0.992016534099
0.991693939969
0.994152958886
0.992954944639
0.994125382415
0.984692075351
0.984117385743
0.997017512339
0.995703447585
0.98970546823
0.989967749801
0.989972769074
0.99029693692
0.976528651423
0.991702390475
0.993866874062
0.988982086712
0.984582263861
0.981216272626
0.990173252973
0.993003756715
0.989790083685
0.986921939068
0.995229433265
0.984023149865
0.997460254752
0.994677749833
0.994063688499
0.981979376444
0.989221718751
0.987757746603
