0.915933850283
0.898280198419
0.910347873375
0.909372424328
0.903534124186
0.907685458484
0.912197761018
0.886783873605
0.894327643856
0.897809358666
0.900829349271
0.90232921813
0.902847120978
0.910326633574
0.907047074143
0.899570548393
0.907511026246
0.900868110086
0.919870037735
0.894976305843
0.892063809764
0.91229838459
0.913395933259
0.907530673781
0.906592258109
0.909487528421
0.906925633806
0.907935769092
0.900315892532
0.908915491002
0.897552987023
0.909244706193
0.90580504159
0.912624421279
0.895236741963
0.906573916474
0.916206293115
0.902743864573
0.909693148444
0.913105382572
0.904394593896
0.90770560083
0.901084238974
0.902268318104
0.898902645503
0.892826388085
0.906347862178
0.914407541263
0.896576839805
0.910152330063
