2.22361871963
2.21075285087
2.23206284184
2.23490962114
2.22577863446
2.23165650333
2.2545067355
2.22826260505
2.22024516201
2.2277821477
2.23512094483
2.24296339708
2.22785069271
2.22568213105
2.22674158773
2.22962493904
2.22836992921
2.24071905904
2.22628508008
2.25165538424
2.22082352125
2.23759297625
2.23588187267
2.23586304078
2.20744627049
2.22377279875
2.18834449589
2.2352655895
2.2265398165
2.24884893406
2.24859931503
2.23308176079
2.22648927564
2.22098129468
2.25354929037
2.19445819244
2.22000183044
2.23712891854
2.25251785575
2.23169789007
2.22663169873
2.22441377886
2.22029528396
2.24121025185
2.21788239145
2.23487803103
2.25673865654
2.2417437399
2.21196219184
2.22876549705
