%!PS-Adobe-3.0 EPSF-3.0
%%Creator: (MATLAB, The Mathworks, Inc. Version 9.1.0.441655 \(R2016b\). Operating System: Mac OS X)
%%Title: ./PoA.eps
%%CreationDate: 2018-04-19T21:23:49
%%Pages: (atend)
%%BoundingBox:    19     0   529   395
%%LanguageLevel: 3
%%EndComments
%%BeginProlog
%%BeginResource: procset (Apache XML Graphics Std ProcSet) 1.2 0
%%Version: 1.2 0
%%Copyright: (Copyright 2001-2003,2010 The Apache Software Foundation. License terms: http://www.apache.org/licenses/LICENSE-2.0)
/bd{bind def}bind def
/ld{load def}bd
/GR/grestore ld
/M/moveto ld
/LJ/setlinejoin ld
/C/curveto ld
/f/fill ld
/LW/setlinewidth ld
/GC/setgray ld
/t/show ld
/N/newpath ld
/CT/concat ld
/cp/closepath ld
/S/stroke ld
/L/lineto ld
/CC/setcmykcolor ld
/A/ashow ld
/GS/gsave ld
/RC/setrgbcolor ld
/RM/rmoveto ld
/ML/setmiterlimit ld
/re {4 2 roll M
1 index 0 rlineto
0 exch rlineto
neg 0 rlineto
cp } bd
/_ctm matrix def
/_tm matrix def
/BT { _ctm currentmatrix pop matrix _tm copy pop 0 0 moveto } bd
/ET { _ctm setmatrix } bd
/iTm { _ctm setmatrix _tm concat } bd
/Tm { _tm astore pop iTm 0 0 moveto } bd
/ux 0.0 def
/uy 0.0 def
/F {
  /Tp exch def
  /Tf exch def
  Tf findfont Tp scalefont setfont
  /cf Tf def  /cs Tp def
} bd
/ULS {currentpoint /uy exch def /ux exch def} bd
/ULE {
  /Tcx currentpoint pop def
  gsave
  newpath
  cf findfont cs scalefont dup
  /FontMatrix get 0 get /Ts exch def /FontInfo get dup
  /UnderlinePosition get Ts mul /To exch def
  /UnderlineThickness get Ts mul /Tt exch def
  ux uy To add moveto  Tcx uy To add lineto
  Tt setlinewidth stroke
  grestore
} bd
/OLE {
  /Tcx currentpoint pop def
  gsave
  newpath
  cf findfont cs scalefont dup
  /FontMatrix get 0 get /Ts exch def /FontInfo get dup
  /UnderlinePosition get Ts mul /To exch def
  /UnderlineThickness get Ts mul /Tt exch def
  ux uy To add cs add moveto Tcx uy To add cs add lineto
  Tt setlinewidth stroke
  grestore
} bd
/SOE {
  /Tcx currentpoint pop def
  gsave
  newpath
  cf findfont cs scalefont dup
  /FontMatrix get 0 get /Ts exch def /FontInfo get dup
  /UnderlinePosition get Ts mul /To exch def
  /UnderlineThickness get Ts mul /Tt exch def
  ux uy To add cs 10 mul 26 idiv add moveto Tcx uy To add cs 10 mul 26 idiv add lineto
  Tt setlinewidth stroke
  grestore
} bd
/QT {
/Y22 exch store
/X22 exch store
/Y21 exch store
/X21 exch store
currentpoint
/Y21 load 2 mul add 3 div exch
/X21 load 2 mul add 3 div exch
/X21 load 2 mul /X22 load add 3 div
/Y21 load 2 mul /Y22 load add 3 div
/X22 load /Y22 load curveto
} bd
/SSPD {
dup length /d exch dict def
{
/v exch def
/k exch def
currentpagedevice k known {
/cpdv currentpagedevice k get def
v cpdv ne {
/upd false def
/nullv v type /nulltype eq def
/nullcpdv cpdv type /nulltype eq def
nullv nullcpdv or
{
/upd true def
} {
/sametype v type cpdv type eq def
sametype {
v type /arraytype eq {
/vlen v length def
/cpdvlen cpdv length def
vlen cpdvlen eq {
0 1 vlen 1 sub {
/i exch def
/obj v i get def
/cpdobj cpdv i get def
obj cpdobj ne {
/upd true def
exit
} if
} for
} {
/upd true def
} ifelse
} {
v type /dicttype eq {
v {
/dv exch def
/dk exch def
/cpddv cpdv dk get def
dv cpddv ne {
/upd true def
exit
} if
} forall
} {
/upd true def
} ifelse
} ifelse
} if
} ifelse
upd true eq {
d k v put
} if
} if
} if
} forall
d length 0 gt {
d setpagedevice
} if
} bd
/RE { % /NewFontName [NewEncodingArray] /FontName RE -
  findfont dup length dict begin
  {
    1 index /FID ne
    {def} {pop pop} ifelse
  } forall
  /Encoding exch def
  /FontName 1 index def
  currentdict definefont pop
  end
} bind def
%%EndResource
%%BeginResource: procset (Apache XML Graphics EPS ProcSet) 1.0 0
%%Version: 1.0 0
%%Copyright: (Copyright 2002-2003 The Apache Software Foundation. License terms: http://www.apache.org/licenses/LICENSE-2.0)
/BeginEPSF { %def
/b4_Inc_state save def         % Save state for cleanup
/dict_count countdictstack def % Count objects on dict stack
/op_count count 1 sub def      % Count objects on operand stack
userdict begin                 % Push userdict on dict stack
/showpage { } def              % Redefine showpage, { } = null proc
0 setgray 0 setlinecap         % Prepare graphics state
1 setlinewidth 0 setlinejoin
10 setmiterlimit [ ] 0 setdash newpath
/languagelevel where           % If level not equal to 1 then
{pop languagelevel             % set strokeadjust and
1 ne                           % overprint to their defaults.
{false setstrokeadjust false setoverprint
} if
} if
} bd
/EndEPSF { %def
count op_count sub {pop} repeat            % Clean up stacks
countdictstack dict_count sub {end} repeat
b4_Inc_state restore
} bd
%%EndResource
%FOPBeginFontDict
%%IncludeResource: font Courier-Bold
%%IncludeResource: font Helvetica
%%IncludeResource: font Courier-BoldOblique
%%IncludeResource: font Courier-Oblique
%%IncludeResource: font Times-Roman
%%IncludeResource: font Helvetica-BoldOblique
%%IncludeResource: font Helvetica-Bold
%%IncludeResource: font Helvetica-Oblique
%%IncludeResource: font Times-BoldItalic
%%IncludeResource: font Courier
%%IncludeResource: font Times-Italic
%%IncludeResource: font Times-Bold
%%IncludeResource: font Symbol
%%IncludeResource: font ZapfDingbats
%FOPEndFontDict
%%BeginResource: encoding WinAnsiEncoding
/WinAnsiEncoding [
/.notdef /.notdef /.notdef /.notdef /.notdef
/.notdef /.notdef /.notdef /.notdef /.notdef
/.notdef /.notdef /.notdef /.notdef /.notdef
/.notdef /.notdef /.notdef /.notdef /.notdef
/.notdef /.notdef /.notdef /.notdef /.notdef
/.notdef /.notdef /.notdef /.notdef /.notdef
/.notdef /.notdef /space /exclam /quotedbl
/numbersign /dollar /percent /ampersand /quotesingle
/parenleft /parenright /asterisk /plus /comma
/hyphen /period /slash /zero /one
/two /three /four /five /six
/seven /eight /nine /colon /semicolon
/less /equal /greater /question /at
/A /B /C /D /E
/F /G /H /I /J
/K /L /M /N /O
/P /Q /R /S /T
/U /V /W /X /Y
/Z /bracketleft /backslash /bracketright /asciicircum
/underscore /quoteleft /a /b /c
/d /e /f /g /h
/i /j /k /l /m
/n /o /p /q /r
/s /t /u /v /w
/x /y /z /braceleft /bar
/braceright /asciitilde /bullet /Euro /bullet
/quotesinglbase /florin /quotedblbase /ellipsis /dagger
/daggerdbl /circumflex /perthousand /Scaron /guilsinglleft
/OE /bullet /Zcaron /bullet /bullet
/quoteleft /quoteright /quotedblleft /quotedblright /bullet
/endash /emdash /asciitilde /trademark /scaron
/guilsinglright /oe /bullet /zcaron /Ydieresis
/space /exclamdown /cent /sterling /currency
/yen /brokenbar /section /dieresis /copyright
/ordfeminine /guillemotleft /logicalnot /sfthyphen /registered
/macron /degree /plusminus /twosuperior /threesuperior
/acute /mu /paragraph /middot /cedilla
/onesuperior /ordmasculine /guillemotright /onequarter /onehalf
/threequarters /questiondown /Agrave /Aacute /Acircumflex
/Atilde /Adieresis /Aring /AE /Ccedilla
/Egrave /Eacute /Ecircumflex /Edieresis /Igrave
/Iacute /Icircumflex /Idieresis /Eth /Ntilde
/Ograve /Oacute /Ocircumflex /Otilde /Odieresis
/multiply /Oslash /Ugrave /Uacute /Ucircumflex
/Udieresis /Yacute /Thorn /germandbls /agrave
/aacute /acircumflex /atilde /adieresis /aring
/ae /ccedilla /egrave /eacute /ecircumflex
/edieresis /igrave /iacute /icircumflex /idieresis
/eth /ntilde /ograve /oacute /ocircumflex
/otilde /odieresis /divide /oslash /ugrave
/uacute /ucircumflex /udieresis /yacute /thorn
/ydieresis
] def
%%EndResource
%FOPBeginFontReencode
/Courier-Bold findfont
dup length dict begin
  {1 index /FID ne {def} {pop pop} ifelse} forall
  /Encoding WinAnsiEncoding def
  currentdict
end
/Courier-Bold exch definefont pop
/Helvetica findfont
dup length dict begin
  {1 index /FID ne {def} {pop pop} ifelse} forall
  /Encoding WinAnsiEncoding def
  currentdict
end
/Helvetica exch definefont pop
/Courier-BoldOblique findfont
dup length dict begin
  {1 index /FID ne {def} {pop pop} ifelse} forall
  /Encoding WinAnsiEncoding def
  currentdict
end
/Courier-BoldOblique exch definefont pop
/Courier-Oblique findfont
dup length dict begin
  {1 index /FID ne {def} {pop pop} ifelse} forall
  /Encoding WinAnsiEncoding def
  currentdict
end
/Courier-Oblique exch definefont pop
/Times-Roman findfont
dup length dict begin
  {1 index /FID ne {def} {pop pop} ifelse} forall
  /Encoding WinAnsiEncoding def
  currentdict
end
/Times-Roman exch definefont pop
/Helvetica-BoldOblique findfont
dup length dict begin
  {1 index /FID ne {def} {pop pop} ifelse} forall
  /Encoding WinAnsiEncoding def
  currentdict
end
/Helvetica-BoldOblique exch definefont pop
/Helvetica-Bold findfont
dup length dict begin
  {1 index /FID ne {def} {pop pop} ifelse} forall
  /Encoding WinAnsiEncoding def
  currentdict
end
/Helvetica-Bold exch definefont pop
/Helvetica-Oblique findfont
dup length dict begin
  {1 index /FID ne {def} {pop pop} ifelse} forall
  /Encoding WinAnsiEncoding def
  currentdict
end
/Helvetica-Oblique exch definefont pop
/Times-BoldItalic findfont
dup length dict begin
  {1 index /FID ne {def} {pop pop} ifelse} forall
  /Encoding WinAnsiEncoding def
  currentdict
end
/Times-BoldItalic exch definefont pop
/Courier findfont
dup length dict begin
  {1 index /FID ne {def} {pop pop} ifelse} forall
  /Encoding WinAnsiEncoding def
  currentdict
end
/Courier exch definefont pop
/Times-Italic findfont
dup length dict begin
  {1 index /FID ne {def} {pop pop} ifelse} forall
  /Encoding WinAnsiEncoding def
  currentdict
end
/Times-Italic exch definefont pop
/Times-Bold findfont
dup length dict begin
  {1 index /FID ne {def} {pop pop} ifelse} forall
  /Encoding WinAnsiEncoding def
  currentdict
end
/Times-Bold exch definefont pop
%FOPEndFontReencode
%%EndProlog
%%Page: 1 1
%%PageBoundingBox: 0 0 560 420
%%BeginPageSetup
[1 0 0 -1 0 420] CT
%%EndPageSetup
GS
1 GC
N
0 0 560 420 re
f
GR
GS
1 GC
N
0 0 560 420 re
f
GR
GS
1 GC
N
73 367.5 M
507 367.5 L
507 31.5 L
73 31.5 L
cp
f
GR
GS
0.873 GC
1 LJ
0.5 LW
N
73 367.5 M
73 31.5 L
S
GR
GS
0.873 GC
1 LJ
0.5 LW
N
159.799 367.5 M
159.799 31.5 L
S
GR
GS
0.873 GC
1 LJ
0.5 LW
N
246.6 367.5 M
246.6 31.5 L
S
GR
GS
0.873 GC
1 LJ
0.5 LW
N
333.4 367.5 M
333.4 31.5 L
S
GR
GS
0.873 GC
1 LJ
0.5 LW
N
420.2 367.5 M
420.2 31.5 L
S
GR
GS
0.873 GC
1 LJ
0.5 LW
N
507 367.5 M
507 31.5 L
S
GR
GS
0.873 GC
1 LJ
0.5 LW
N
507 367.5 M
73 367.5 L
S
GR
GS
0.873 GC
1 LJ
0.5 LW
N
507 300.3 M
73 300.3 L
S
GR
GS
0.873 GC
1 LJ
0.5 LW
N
507 233.1 M
73 233.1 L
S
GR
GS
0.873 GC
1 LJ
0.5 LW
N
507 165.9 M
73 165.9 L
S
GR
GS
0.873 GC
1 LJ
0.5 LW
N
507 98.7 M
73 98.7 L
S
GR
GS
0.873 GC
1 LJ
0.5 LW
N
507 31.5 M
73 31.5 L
S
GR
GS
0.149 GC
2 setlinecap
1 LJ
0.5 LW
N
73 367.5 M
507 367.5 L
S
GR
GS
0.149 GC
2 setlinecap
1 LJ
0.5 LW
N
73 31.5 M
507 31.5 L
S
GR
GS
0.149 GC
2 setlinecap
1 LJ
0.5 LW
N
73 367.5 M
73 363.16 L
S
GR
GS
0.149 GC
2 setlinecap
1 LJ
0.5 LW
N
159.799 367.5 M
159.799 363.16 L
S
GR
GS
0.149 GC
2 setlinecap
1 LJ
0.5 LW
N
246.6 367.5 M
246.6 363.16 L
S
GR
GS
0.149 GC
2 setlinecap
1 LJ
0.5 LW
N
333.4 367.5 M
333.4 363.16 L
S
GR
GS
0.149 GC
2 setlinecap
1 LJ
0.5 LW
N
420.2 367.5 M
420.2 363.16 L
S
GR
GS
0.149 GC
2 setlinecap
1 LJ
0.5 LW
N
507 367.5 M
507 363.16 L
S
GR
GS
0.149 GC
2 setlinecap
1 LJ
0.5 LW
N
73 31.5 M
73 35.84 L
S
GR
GS
0.149 GC
2 setlinecap
1 LJ
0.5 LW
N
159.799 31.5 M
159.799 35.84 L
S
GR
GS
0.149 GC
2 setlinecap
1 LJ
0.5 LW
N
246.6 31.5 M
246.6 35.84 L
S
GR
GS
0.149 GC
2 setlinecap
1 LJ
0.5 LW
N
333.4 31.5 M
333.4 35.84 L
S
GR
GS
0.149 GC
2 setlinecap
1 LJ
0.5 LW
N
420.2 31.5 M
420.2 35.84 L
S
GR
GS
0.149 GC
2 setlinecap
1 LJ
0.5 LW
N
507 31.5 M
507 35.84 L
S
GR
GS
[1 0 0 1 72.99959 373.10001] CT
0.149 GC
/Helvetica 18 F
GS
[1 0 0 1 0 0] CT
-13 18 moveto 
1 -1 scale
(0.9) t 
GR
GR
GS
[1 0 0 1 159.7995 373.10001] CT
0.149 GC
/Helvetica 18 F
GS
[1 0 0 1 0 0] CT
-23 18 moveto 
1 -1 scale
(0.905) t 
GR
GR
GS
[1 0 0 1 246.60045 373.10001] CT
0.149 GC
/Helvetica 18 F
GS
[1 0 0 1 0 0] CT
-18 18 moveto 
1 -1 scale
(0.91) t 
GR
GR
GS
[1 0 0 1 333.40036 373.10001] CT
0.149 GC
/Helvetica 18 F
GS
[1 0 0 1 0 0] CT
-23 18 moveto 
1 -1 scale
(0.915) t 
GR
GR
GS
[1 0 0 1 420.20029 373.10001] CT
0.149 GC
/Helvetica 18 F
GS
[1 0 0 1 0 0] CT
-18 18 moveto 
1 -1 scale
(0.92) t 
GR
GR
GS
[1 0 0 1 507.00021 373.10001] CT
0.149 GC
/Helvetica 18 F
GS
[1 0 0 1 0 0] CT
-23 18 moveto 
1 -1 scale
(0.925) t 
GR
GR
GS
[1 0 0 1 290.00043 396] CT
0.149 GC
/Helvetica 19.8 F
GS
[1 0 0 1 0 0] CT
-74 20 moveto 
1 -1 scale
(Price of Anarchy) t 
GR
GR
GS
0.149 GC
2 setlinecap
1 LJ
0.5 LW
N
73 367.5 M
73 31.5 L
S
GR
GS
0.149 GC
2 setlinecap
1 LJ
0.5 LW
N
507 367.5 M
507 31.5 L
S
GR
GS
0.149 GC
2 setlinecap
1 LJ
0.5 LW
N
73 367.5 M
77.339 367.5 L
S
GR
GS
0.149 GC
2 setlinecap
1 LJ
0.5 LW
N
73 300.3 M
77.339 300.3 L
S
GR
GS
0.149 GC
2 setlinecap
1 LJ
0.5 LW
N
73 233.1 M
77.339 233.1 L
S
GR
GS
0.149 GC
2 setlinecap
1 LJ
0.5 LW
N
73 165.9 M
77.339 165.9 L
S
GR
GS
0.149 GC
2 setlinecap
1 LJ
0.5 LW
N
73 98.7 M
77.339 98.7 L
S
GR
GS
0.149 GC
2 setlinecap
1 LJ
0.5 LW
N
73 31.5 M
77.339 31.5 L
S
GR
GS
0.149 GC
2 setlinecap
1 LJ
0.5 LW
N
507 367.5 M
502.661 367.5 L
S
GR
GS
0.149 GC
2 setlinecap
1 LJ
0.5 LW
N
507 300.3 M
502.661 300.3 L
S
GR
GS
0.149 GC
2 setlinecap
1 LJ
0.5 LW
N
507 233.1 M
502.661 233.1 L
S
GR
GS
0.149 GC
2 setlinecap
1 LJ
0.5 LW
N
507 165.9 M
502.661 165.9 L
S
GR
GS
0.149 GC
2 setlinecap
1 LJ
0.5 LW
N
507 98.7 M
502.661 98.7 L
S
GR
GS
0.149 GC
2 setlinecap
1 LJ
0.5 LW
N
507 31.5 M
502.661 31.5 L
S
GR
GS
[1 0 0 1 67.39959 367.5] CT
0.149 GC
/Helvetica 18 F
GS
[1 0 0 1 0 0] CT
-11 7 moveto 
1 -1 scale
(0) t 
GR
GR
GS
[1 0 0 1 67.39959 300.29999] CT
0.149 GC
/Helvetica 18 F
GS
[1 0 0 1 0 0] CT
-26 7 moveto 
1 -1 scale
(0.2) t 
GR
GR
GS
[1 0 0 1 67.39959 233.09999] CT
0.149 GC
/Helvetica 18 F
GS
[1 0 0 1 0 0] CT
-26 7 moveto 
1 -1 scale
(0.4) t 
GR
GR
GS
[1 0 0 1 67.39959 165.89999] CT
0.149 GC
/Helvetica 18 F
GS
[1 0 0 1 0 0] CT
-26 7 moveto 
1 -1 scale
(0.6) t 
GR
GR
GS
[1 0 0 1 67.39959 98.7] CT
0.149 GC
/Helvetica 18 F
GS
[1 0 0 1 0 0] CT
-26 7 moveto 
1 -1 scale
(0.8) t 
GR
GR
GS
[1 0 0 1 67.39959 31.5] CT
0.149 GC
/Helvetica 18 F
GS
[1 0 0 1 0 0] CT
-11 7 moveto 
1 -1 scale
(1) t 
GR
GR
GS
[0 -1 1 0 38.89984 199.49985] CT
0.149 GC
/Helvetica 19.8 F
GS
[1 0 0 1 0 0] CT
-20 -5 moveto 
1 -1 scale
(CDF) t 
GR
GR
GS
0 0.447 0.741 RC
1 LJ
3 LW
N
111.013 367.5 M
111.013 360.78 L
132.987 354.06 L
153.176 347.34 L
162.323 340.62 L
166.066 333.9 L
166.331 327.18 L
185.663 320.46 L
194.865 313.74 L
204.592 307.02 L
205.291 300.3 L
216.779 293.58 L
217.983 286.86 L
218.463 280.14 L
222.381 273.42 L
224.186 266.7 L
229.658 259.98 L
230.612 253.26 L
250.528 246.54 L
250.897 239.82 L
258.72 233.1 L
260.043 226.38 L
262.137 219.66 L
274.277 212.94 L
280.46 206.22 L
283.478 199.5 L
286.631 192.78 L
288.6 186.06 L
295.627 179.34 L
303.297 172.62 L
306.27 165.9 L
308.778 159.18 L
318.041 152.46 L
320.722 145.74 L
324.691 139.02 L
334.349 132.3 L
352.5 125.58 L
360.161 118.86 L
367.394 112.14 L
371.933 105.42 L
374.553 98.7 L
383.542 91.98 L
383.651 85.26 L
384.627 78.54 L
386.831 71.82 L
387.204 65.1 L
387.968 58.38 L
396.609 51.66 L
438 44.94 L
461.712 38.22 L
489.507 31.5 L
S
GR
%%Trailer
%%Pages: 1
%%EOF
