%!PS-Adobe-3.0 EPSF-3.0
%%Creator: (MATLAB, The Mathworks, Inc. Version 9.1.0.441655 \(R2016b\). Operating System: Mac OS X)
%%Title: ./sum_k_largest.eps
%%CreationDate: 2018-04-19T21:23:51
%%Pages: (atend)
%%BoundingBox:    19     4   526   395
%%LanguageLevel: 3
%%EndComments
%%BeginProlog
%%BeginResource: procset (Apache XML Graphics Std ProcSet) 1.2 0
%%Version: 1.2 0
%%Copyright: (Copyright 2001-2003,2010 The Apache Software Foundation. License terms: http://www.apache.org/licenses/LICENSE-2.0)
/bd{bind def}bind def
/ld{load def}bd
/GR/grestore ld
/M/moveto ld
/LJ/setlinejoin ld
/C/curveto ld
/f/fill ld
/LW/setlinewidth ld
/GC/setgray ld
/t/show ld
/N/newpath ld
/CT/concat ld
/cp/closepath ld
/S/stroke ld
/L/lineto ld
/CC/setcmykcolor ld
/A/ashow ld
/GS/gsave ld
/RC/setrgbcolor ld
/RM/rmoveto ld
/ML/setmiterlimit ld
/re {4 2 roll M
1 index 0 rlineto
0 exch rlineto
neg 0 rlineto
cp } bd
/_ctm matrix def
/_tm matrix def
/BT { _ctm currentmatrix pop matrix _tm copy pop 0 0 moveto } bd
/ET { _ctm setmatrix } bd
/iTm { _ctm setmatrix _tm concat } bd
/Tm { _tm astore pop iTm 0 0 moveto } bd
/ux 0.0 def
/uy 0.0 def
/F {
  /Tp exch def
  /Tf exch def
  Tf findfont Tp scalefont setfont
  /cf Tf def  /cs Tp def
} bd
/ULS {currentpoint /uy exch def /ux exch def} bd
/ULE {
  /Tcx currentpoint pop def
  gsave
  newpath
  cf findfont cs scalefont dup
  /FontMatrix get 0 get /Ts exch def /FontInfo get dup
  /UnderlinePosition get Ts mul /To exch def
  /UnderlineThickness get Ts mul /Tt exch def
  ux uy To add moveto  Tcx uy To add lineto
  Tt setlinewidth stroke
  grestore
} bd
/OLE {
  /Tcx currentpoint pop def
  gsave
  newpath
  cf findfont cs scalefont dup
  /FontMatrix get 0 get /Ts exch def /FontInfo get dup
  /UnderlinePosition get Ts mul /To exch def
  /UnderlineThickness get Ts mul /Tt exch def
  ux uy To add cs add moveto Tcx uy To add cs add lineto
  Tt setlinewidth stroke
  grestore
} bd
/SOE {
  /Tcx currentpoint pop def
  gsave
  newpath
  cf findfont cs scalefont dup
  /FontMatrix get 0 get /Ts exch def /FontInfo get dup
  /UnderlinePosition get Ts mul /To exch def
  /UnderlineThickness get Ts mul /Tt exch def
  ux uy To add cs 10 mul 26 idiv add moveto Tcx uy To add cs 10 mul 26 idiv add lineto
  Tt setlinewidth stroke
  grestore
} bd
/QT {
/Y22 exch store
/X22 exch store
/Y21 exch store
/X21 exch store
currentpoint
/Y21 load 2 mul add 3 div exch
/X21 load 2 mul add 3 div exch
/X21 load 2 mul /X22 load add 3 div
/Y21 load 2 mul /Y22 load add 3 div
/X22 load /Y22 load curveto
} bd
/SSPD {
dup length /d exch dict def
{
/v exch def
/k exch def
currentpagedevice k known {
/cpdv currentpagedevice k get def
v cpdv ne {
/upd false def
/nullv v type /nulltype eq def
/nullcpdv cpdv type /nulltype eq def
nullv nullcpdv or
{
/upd true def
} {
/sametype v type cpdv type eq def
sametype {
v type /arraytype eq {
/vlen v length def
/cpdvlen cpdv length def
vlen cpdvlen eq {
0 1 vlen 1 sub {
/i exch def
/obj v i get def
/cpdobj cpdv i get def
obj cpdobj ne {
/upd true def
exit
} if
} for
} {
/upd true def
} ifelse
} {
v type /dicttype eq {
v {
/dv exch def
/dk exch def
/cpddv cpdv dk get def
dv cpddv ne {
/upd true def
exit
} if
} forall
} {
/upd true def
} ifelse
} ifelse
} if
} ifelse
upd true eq {
d k v put
} if
} if
} if
} forall
d length 0 gt {
d setpagedevice
} if
} bd
/RE { % /NewFontName [NewEncodingArray] /FontName RE -
  findfont dup length dict begin
  {
    1 index /FID ne
    {def} {pop pop} ifelse
  } forall
  /Encoding exch def
  /FontName 1 index def
  currentdict definefont pop
  end
} bind def
%%EndResource
%%BeginResource: procset (Apache XML Graphics EPS ProcSet) 1.0 0
%%Version: 1.0 0
%%Copyright: (Copyright 2002-2003 The Apache Software Foundation. License terms: http://www.apache.org/licenses/LICENSE-2.0)
/BeginEPSF { %def
/b4_Inc_state save def         % Save state for cleanup
/dict_count countdictstack def % Count objects on dict stack
/op_count count 1 sub def      % Count objects on operand stack
userdict begin                 % Push userdict on dict stack
/showpage { } def              % Redefine showpage, { } = null proc
0 setgray 0 setlinecap         % Prepare graphics state
1 setlinewidth 0 setlinejoin
10 setmiterlimit [ ] 0 setdash newpath
/languagelevel where           % If level not equal to 1 then
{pop languagelevel             % set strokeadjust and
1 ne                           % overprint to their defaults.
{false setstrokeadjust false setoverprint
} if
} if
} bd
/EndEPSF { %def
count op_count sub {pop} repeat            % Clean up stacks
countdictstack dict_count sub {end} repeat
b4_Inc_state restore
} bd
%%EndResource
%FOPBeginFontDict
%%IncludeResource: font Courier-Bold
%%IncludeResource: font Helvetica
%%IncludeResource: font Courier-BoldOblique
%%IncludeResource: font Courier-Oblique
%%IncludeResource: font Times-Roman
%%IncludeResource: font Helvetica-BoldOblique
%%IncludeResource: font Helvetica-Bold
%%IncludeResource: font Helvetica-Oblique
%%IncludeResource: font Times-BoldItalic
%%IncludeResource: font Courier
%%IncludeResource: font Times-Italic
%%IncludeResource: font Times-Bold
%%IncludeResource: font Symbol
%%IncludeResource: font ZapfDingbats
%FOPEndFontDict
%%BeginResource: encoding WinAnsiEncoding
/WinAnsiEncoding [
/.notdef /.notdef /.notdef /.notdef /.notdef
/.notdef /.notdef /.notdef /.notdef /.notdef
/.notdef /.notdef /.notdef /.notdef /.notdef
/.notdef /.notdef /.notdef /.notdef /.notdef
/.notdef /.notdef /.notdef /.notdef /.notdef
/.notdef /.notdef /.notdef /.notdef /.notdef
/.notdef /.notdef /space /exclam /quotedbl
/numbersign /dollar /percent /ampersand /quotesingle
/parenleft /parenright /asterisk /plus /comma
/hyphen /period /slash /zero /one
/two /three /four /five /six
/seven /eight /nine /colon /semicolon
/less /equal /greater /question /at
/A /B /C /D /E
/F /G /H /I /J
/K /L /M /N /O
/P /Q /R /S /T
/U /V /W /X /Y
/Z /bracketleft /backslash /bracketright /asciicircum
/underscore /quoteleft /a /b /c
/d /e /f /g /h
/i /j /k /l /m
/n /o /p /q /r
/s /t /u /v /w
/x /y /z /braceleft /bar
/braceright /asciitilde /bullet /Euro /bullet
/quotesinglbase /florin /quotedblbase /ellipsis /dagger
/daggerdbl /circumflex /perthousand /Scaron /guilsinglleft
/OE /bullet /Zcaron /bullet /bullet
/quoteleft /quoteright /quotedblleft /quotedblright /bullet
/endash /emdash /asciitilde /trademark /scaron
/guilsinglright /oe /bullet /zcaron /Ydieresis
/space /exclamdown /cent /sterling /currency
/yen /brokenbar /section /dieresis /copyright
/ordfeminine /guillemotleft /logicalnot /sfthyphen /registered
/macron /degree /plusminus /twosuperior /threesuperior
/acute /mu /paragraph /middot /cedilla
/onesuperior /ordmasculine /guillemotright /onequarter /onehalf
/threequarters /questiondown /Agrave /Aacute /Acircumflex
/Atilde /Adieresis /Aring /AE /Ccedilla
/Egrave /Eacute /Ecircumflex /Edieresis /Igrave
/Iacute /Icircumflex /Idieresis /Eth /Ntilde
/Ograve /Oacute /Ocircumflex /Otilde /Odieresis
/multiply /Oslash /Ugrave /Uacute /Ucircumflex
/Udieresis /Yacute /Thorn /germandbls /agrave
/aacute /acircumflex /atilde /adieresis /aring
/ae /ccedilla /egrave /eacute /ecircumflex
/edieresis /igrave /iacute /icircumflex /idieresis
/eth /ntilde /ograve /oacute /ocircumflex
/otilde /odieresis /divide /oslash /ugrave
/uacute /ucircumflex /udieresis /yacute /thorn
/ydieresis
] def
%%EndResource
%FOPBeginFontReencode
/Courier-Bold findfont
dup length dict begin
  {1 index /FID ne {def} {pop pop} ifelse} forall
  /Encoding WinAnsiEncoding def
  currentdict
end
/Courier-Bold exch definefont pop
/Helvetica findfont
dup length dict begin
  {1 index /FID ne {def} {pop pop} ifelse} forall
  /Encoding WinAnsiEncoding def
  currentdict
end
/Helvetica exch definefont pop
/Courier-BoldOblique findfont
dup length dict begin
  {1 index /FID ne {def} {pop pop} ifelse} forall
  /Encoding WinAnsiEncoding def
  currentdict
end
/Courier-BoldOblique exch definefont pop
/Courier-Oblique findfont
dup length dict begin
  {1 index /FID ne {def} {pop pop} ifelse} forall
  /Encoding WinAnsiEncoding def
  currentdict
end
/Courier-Oblique exch definefont pop
/Times-Roman findfont
dup length dict begin
  {1 index /FID ne {def} {pop pop} ifelse} forall
  /Encoding WinAnsiEncoding def
  currentdict
end
/Times-Roman exch definefont pop
/Helvetica-BoldOblique findfont
dup length dict begin
  {1 index /FID ne {def} {pop pop} ifelse} forall
  /Encoding WinAnsiEncoding def
  currentdict
end
/Helvetica-BoldOblique exch definefont pop
/Helvetica-Bold findfont
dup length dict begin
  {1 index /FID ne {def} {pop pop} ifelse} forall
  /Encoding WinAnsiEncoding def
  currentdict
end
/Helvetica-Bold exch definefont pop
/Helvetica-Oblique findfont
dup length dict begin
  {1 index /FID ne {def} {pop pop} ifelse} forall
  /Encoding WinAnsiEncoding def
  currentdict
end
/Helvetica-Oblique exch definefont pop
/Times-BoldItalic findfont
dup length dict begin
  {1 index /FID ne {def} {pop pop} ifelse} forall
  /Encoding WinAnsiEncoding def
  currentdict
end
/Times-BoldItalic exch definefont pop
/Courier findfont
dup length dict begin
  {1 index /FID ne {def} {pop pop} ifelse} forall
  /Encoding WinAnsiEncoding def
  currentdict
end
/Courier exch definefont pop
/Times-Italic findfont
dup length dict begin
  {1 index /FID ne {def} {pop pop} ifelse} forall
  /Encoding WinAnsiEncoding def
  currentdict
end
/Times-Italic exch definefont pop
/Times-Bold findfont
dup length dict begin
  {1 index /FID ne {def} {pop pop} ifelse} forall
  /Encoding WinAnsiEncoding def
  currentdict
end
/Times-Bold exch definefont pop
%FOPEndFontReencode
%%EndProlog
%%Page: 1 1
%%PageBoundingBox: 0 0 560 420
%%BeginPageSetup
[1 0 0 -1 0 420] CT
%%EndPageSetup
GS
1 GC
N
0 0 560 420 re
f
GR
GS
1 GC
N
0 0 560 420 re
f
GR
GS
1 GC
N
73 367.5 M
507 367.5 L
507 31.5 L
73 31.5 L
cp
f
GR
GS
0.873 GC
1 LJ
0.5 LW
N
73 367.5 M
73 31.5 L
S
GR
GS
0.873 GC
1 LJ
0.5 LW
N
159.8 367.5 M
159.8 31.5 L
S
GR
GS
0.873 GC
1 LJ
0.5 LW
N
246.6 367.5 M
246.6 31.5 L
S
GR
GS
0.873 GC
1 LJ
0.5 LW
N
333.4 367.5 M
333.4 31.5 L
S
GR
GS
0.873 GC
1 LJ
0.5 LW
N
420.2 367.5 M
420.2 31.5 L
S
GR
GS
0.873 GC
1 LJ
0.5 LW
N
507 367.5 M
507 31.5 L
S
GR
GS
0.873 GC
1 LJ
0.5 LW
N
507 367.5 M
73 367.5 L
S
GR
GS
0.873 GC
1 LJ
0.5 LW
N
507 300.3 M
73 300.3 L
S
GR
GS
0.873 GC
1 LJ
0.5 LW
N
507 233.1 M
73 233.1 L
S
GR
GS
0.873 GC
1 LJ
0.5 LW
N
507 165.9 M
73 165.9 L
S
GR
GS
0.873 GC
1 LJ
0.5 LW
N
507 98.7 M
73 98.7 L
S
GR
GS
0.873 GC
1 LJ
0.5 LW
N
507 31.5 M
73 31.5 L
S
GR
GS
0.149 GC
2 setlinecap
1 LJ
0.5 LW
N
73 367.5 M
507 367.5 L
S
GR
GS
0.149 GC
2 setlinecap
1 LJ
0.5 LW
N
73 31.5 M
507 31.5 L
S
GR
GS
0.149 GC
2 setlinecap
1 LJ
0.5 LW
N
73 367.5 M
73 363.16 L
S
GR
GS
0.149 GC
2 setlinecap
1 LJ
0.5 LW
N
159.8 367.5 M
159.8 363.16 L
S
GR
GS
0.149 GC
2 setlinecap
1 LJ
0.5 LW
N
246.6 367.5 M
246.6 363.16 L
S
GR
GS
0.149 GC
2 setlinecap
1 LJ
0.5 LW
N
333.4 367.5 M
333.4 363.16 L
S
GR
GS
0.149 GC
2 setlinecap
1 LJ
0.5 LW
N
420.2 367.5 M
420.2 363.16 L
S
GR
GS
0.149 GC
2 setlinecap
1 LJ
0.5 LW
N
507 367.5 M
507 363.16 L
S
GR
GS
0.149 GC
2 setlinecap
1 LJ
0.5 LW
N
73 31.5 M
73 35.84 L
S
GR
GS
0.149 GC
2 setlinecap
1 LJ
0.5 LW
N
159.8 31.5 M
159.8 35.84 L
S
GR
GS
0.149 GC
2 setlinecap
1 LJ
0.5 LW
N
246.6 31.5 M
246.6 35.84 L
S
GR
GS
0.149 GC
2 setlinecap
1 LJ
0.5 LW
N
333.4 31.5 M
333.4 35.84 L
S
GR
GS
0.149 GC
2 setlinecap
1 LJ
0.5 LW
N
420.2 31.5 M
420.2 35.84 L
S
GR
GS
0.149 GC
2 setlinecap
1 LJ
0.5 LW
N
507 31.5 M
507 35.84 L
S
GR
GS
[1 0 0 1 73 373.10001] CT
0.149 GC
/Helvetica 18 F
GS
[1 0 0 1 0 0] CT
-5.5 18 moveto 
1 -1 scale
(0) t 
GR
GR
GS
[1 0 0 1 159.8 373.10001] CT
0.149 GC
/Helvetica 18 F
GS
[1 0 0 1 0 0] CT
-15.5 18 moveto 
1 -1 scale
(200) t 
GR
GR
GS
[1 0 0 1 246.60001 373.10001] CT
0.149 GC
/Helvetica 18 F
GS
[1 0 0 1 0 0] CT
-15.5 18 moveto 
1 -1 scale
(400) t 
GR
GR
GS
[1 0 0 1 333.39999 373.10001] CT
0.149 GC
/Helvetica 18 F
GS
[1 0 0 1 0 0] CT
-15.5 18 moveto 
1 -1 scale
(600) t 
GR
GR
GS
[1 0 0 1 420.20001 373.10001] CT
0.149 GC
/Helvetica 18 F
GS
[1 0 0 1 0 0] CT
-15.5 18 moveto 
1 -1 scale
(800) t 
GR
GR
GS
[1 0 0 1 507 373.10001] CT
0.149 GC
/Helvetica 18 F
GS
[1 0 0 1 0 0] CT
-20.5 18 moveto 
1 -1 scale
(1000) t 
GR
GR
GS
[1 0 0 1 290.00021 396] CT
0.149 GC
/Helvetica 19.8 F
GS
[1 0 0 1 0 0] CT
-5.5 20 moveto 
1 -1 scale
(k) t 
GR
GR
GS
0.149 GC
2 setlinecap
1 LJ
0.5 LW
N
73 367.5 M
73 31.5 L
S
GR
GS
0.149 GC
2 setlinecap
1 LJ
0.5 LW
N
507 367.5 M
507 31.5 L
S
GR
GS
0.149 GC
2 setlinecap
1 LJ
0.5 LW
N
73 367.5 M
77.34 367.5 L
S
GR
GS
0.149 GC
2 setlinecap
1 LJ
0.5 LW
N
73 300.3 M
77.34 300.3 L
S
GR
GS
0.149 GC
2 setlinecap
1 LJ
0.5 LW
N
73 233.1 M
77.34 233.1 L
S
GR
GS
0.149 GC
2 setlinecap
1 LJ
0.5 LW
N
73 165.9 M
77.34 165.9 L
S
GR
GS
0.149 GC
2 setlinecap
1 LJ
0.5 LW
N
73 98.7 M
77.34 98.7 L
S
GR
GS
0.149 GC
2 setlinecap
1 LJ
0.5 LW
N
73 31.5 M
77.34 31.5 L
S
GR
GS
0.149 GC
2 setlinecap
1 LJ
0.5 LW
N
507 367.5 M
502.66 367.5 L
S
GR
GS
0.149 GC
2 setlinecap
1 LJ
0.5 LW
N
507 300.3 M
502.66 300.3 L
S
GR
GS
0.149 GC
2 setlinecap
1 LJ
0.5 LW
N
507 233.1 M
502.66 233.1 L
S
GR
GS
0.149 GC
2 setlinecap
1 LJ
0.5 LW
N
507 165.9 M
502.66 165.9 L
S
GR
GS
0.149 GC
2 setlinecap
1 LJ
0.5 LW
N
507 98.7 M
502.66 98.7 L
S
GR
GS
0.149 GC
2 setlinecap
1 LJ
0.5 LW
N
507 31.5 M
502.66 31.5 L
S
GR
GS
[1 0 0 1 67.4 367.5] CT
0.149 GC
/Helvetica 18 F
GS
[1 0 0 1 0 0] CT
-11 7 moveto 
1 -1 scale
(0) t 
GR
GR
GS
[1 0 0 1 67.4 300.29999] CT
0.149 GC
/Helvetica 18 F
GS
[1 0 0 1 0 0] CT
-26 7 moveto 
1 -1 scale
(0.2) t 
GR
GR
GS
[1 0 0 1 67.4 233.09999] CT
0.149 GC
/Helvetica 18 F
GS
[1 0 0 1 0 0] CT
-26 7 moveto 
1 -1 scale
(0.4) t 
GR
GR
GS
[1 0 0 1 67.4 165.89999] CT
0.149 GC
/Helvetica 18 F
GS
[1 0 0 1 0 0] CT
-26 7 moveto 
1 -1 scale
(0.6) t 
GR
GR
GS
[1 0 0 1 67.4 98.7] CT
0.149 GC
/Helvetica 18 F
GS
[1 0 0 1 0 0] CT
-26 7 moveto 
1 -1 scale
(0.8) t 
GR
GR
GS
[1 0 0 1 67.4 31.5] CT
0.149 GC
/Helvetica 18 F
GS
[1 0 0 1 0 0] CT
-11 7 moveto 
1 -1 scale
(1) t 
GR
GR
GS
[0 -1 1 0 38.9 199.49985] CT
0.149 GC
/Helvetica 19.8 F
GS
[1 0 0 1 0 0] CT
-151.5 -5 moveto 
1 -1 scale
(Lowerbound of the Expected PoA) t 
GR
GR
GS
1 0 0 RC
1 LJ
3 LW
N
73.434 366.829 M
73.868 366.158 L
74.302 365.488 L
74.736 364.819 L
75.17 364.15 L
75.604 363.482 L
76.038 362.815 L
76.472 362.148 L
76.906 361.482 L
77.34 360.817 L
77.774 360.152 L
78.208 359.488 L
78.642 358.825 L
79.076 358.162 L
79.51 357.501 L
79.944 356.839 L
80.378 356.179 L
80.812 355.519 L
81.246 354.86 L
81.68 354.201 L
82.114 353.543 L
82.548 352.886 L
82.982 352.229 L
83.416 351.573 L
83.85 350.918 L
84.284 350.264 L
84.718 349.61 L
85.152 348.957 L
85.586 348.304 L
86.02 347.652 L
86.454 347.001 L
86.888 346.35 L
87.322 345.701 L
87.756 345.051 L
88.19 344.403 L
88.624 343.755 L
89.058 343.108 L
89.492 342.461 L
89.926 341.816 L
90.36 341.171 L
90.794 340.526 L
91.228 339.882 L
91.662 339.239 L
92.096 338.597 L
92.53 337.955 L
92.964 337.314 L
93.398 336.673 L
93.832 336.033 L
94.266 335.394 L
94.7 334.756 L
95.134 334.118 L
95.568 333.481 L
96.002 332.845 L
96.436 332.209 L
96.87 331.574 L
97.304 330.939 L
97.738 330.306 L
98.172 329.673 L
98.606 329.04 L
99.04 328.409 L
99.474 327.777 L
99.908 327.147 L
100.342 326.517 L
100.776 325.888 L
101.21 325.26 L
101.644 324.632 L
102.078 324.005 L
102.512 323.379 L
102.946 322.753 L
103.38 322.128 L
103.814 321.504 L
104.248 320.88 L
104.682 320.257 L
105.116 319.635 L
105.55 319.013 L
105.984 318.392 L
106.418 317.772 L
106.852 317.152 L
107.286 316.533 L
107.72 315.915 L
108.154 315.297 L
108.588 314.681 L
109.022 314.064 L
109.456 313.449 L
109.89 312.834 L
110.324 312.219 L
110.758 311.606 L
111.192 310.993 L
111.626 310.381 L
112.06 309.769 L
112.494 309.158 L
112.928 308.548 L
113.362 307.938 L
113.796 307.329 L
114.23 306.721 L
114.664 306.114 L
115.098 305.507 L
115.532 304.901 L
115.966 304.295 L
116.4 303.69 L
116.834 303.086 L
117.268 302.482 L
117.702 301.88 L
118.136 301.277 L
118.57 300.676 L
119.004 300.075 L
119.438 299.475 L
119.872 298.875 L
120.306 298.277 L
120.74 297.678 L
121.174 297.081 L
121.608 296.484 L
122.042 295.888 L
122.476 295.293 L
122.91 294.698 L
123.344 294.104 L
123.778 293.51 L
124.212 292.917 L
124.646 292.325 L
125.08 291.734 L
125.514 291.143 L
125.948 290.553 L
126.382 289.964 L
126.816 289.375 L
127.25 288.787 L
127.684 288.199 L
128.118 287.613 L
128.552 287.026 L
128.986 286.441 L
129.42 285.856 L
129.854 285.272 L
130.288 284.689 L
130.722 284.106 L
131.156 283.524 L
131.59 282.943 L
132.024 282.362 L
132.458 281.782 L
132.892 281.203 L
133.326 280.624 L
133.76 280.046 L
134.194 279.469 L
134.628 278.892 L
135.062 278.316 L
135.496 277.741 L
135.93 277.166 L
136.364 276.592 L
136.798 276.019 L
137.232 275.446 L
137.666 274.874 L
138.1 274.303 L
138.534 273.732 L
138.968 273.162 L
139.402 272.593 L
139.836 272.024 L
140.27 271.456 L
140.704 270.889 L
141.138 270.322 L
141.572 269.757 L
142.006 269.191 L
142.44 268.627 L
142.874 268.063 L
143.308 267.5 L
143.742 266.937 L
144.176 266.375 L
144.61 265.814 L
145.044 265.253 L
145.478 264.693 L
145.912 264.134 L
146.346 263.576 L
146.78 263.018 L
147.214 262.461 L
147.648 261.904 L
148.082 261.348 L
148.516 260.793 L
148.95 260.238 L
149.384 259.685 L
149.818 259.131 L
150.252 258.579 L
150.686 258.027 L
151.12 257.476 L
151.554 256.925 L
151.988 256.376 L
152.422 255.826 L
152.856 255.278 L
153.29 254.73 L
153.724 254.183 L
154.158 253.637 L
154.592 253.091 L
155.026 252.546 L
155.46 252.001 L
155.894 251.457 L
156.328 250.914 L
156.762 250.372 L
157.196 249.83 L
157.63 249.289 L
158.064 248.749 L
158.498 248.209 L
158.932 247.67 L
159.366 247.131 L
159.8 246.594 L
160.234 246.057 L
160.668 245.52 L
161.102 244.985 L
161.536 244.449 L
161.97 243.915 L
162.404 243.381 L
162.838 242.848 L
163.272 242.316 L
163.706 241.784 L
164.14 241.253 L
164.574 240.723 L
165.008 240.193 L
165.442 239.664 L
165.876 239.136 L
166.31 238.608 L
166.744 238.081 L
167.178 237.555 L
167.612 237.029 L
168.046 236.504 L
168.48 235.98 L
168.914 235.456 L
169.348 234.933 L
169.782 234.411 L
170.216 233.889 L
170.65 233.369 L
171.084 232.848 L
171.518 232.329 L
171.952 231.81 L
172.386 231.291 L
172.82 230.774 L
173.254 230.257 L
173.688 229.741 L
174.122 229.225 L
174.556 228.71 L
174.99 228.196 L
175.424 227.682 L
175.858 227.169 L
176.292 226.657 L
176.726 226.146 L
177.16 225.635 L
177.594 225.125 L
178.028 224.615 L
178.462 224.106 L
178.896 223.598 L
179.33 223.09 L
179.764 222.584 L
180.198 222.077 L
180.632 221.572 L
181.066 221.067 L
181.5 220.563 L
181.934 220.059 L
182.368 219.557 L
182.802 219.054 L
183.236 218.553 L
183.67 218.052 L
184.104 217.552 L
184.538 217.053 L
184.972 216.554 L
185.406 216.056 L
185.84 215.558 L
186.274 215.061 L
186.708 214.565 L
187.142 214.07 L
187.576 213.575 L
188.01 213.081 L
188.444 212.588 L
188.878 212.095 L
189.312 211.603 L
189.746 211.111 L
190.18 210.621 L
190.614 210.13 L
191.048 209.641 L
191.482 209.152 L
191.916 208.664 L
192.35 208.177 L
192.784 207.69 L
193.218 207.204 L
193.652 206.719 L
194.086 206.234 L
194.52 205.75 L
194.954 205.267 L
195.388 204.784 L
195.822 204.302 L
196.256 203.821 L
196.69 203.34 L
197.124 202.86 L
197.558 202.381 L
197.992 201.902 L
198.426 201.424 L
198.86 200.947 L
199.294 200.47 L
199.728 199.994 L
200.162 199.519 L
200.596 199.044 L
201.03 198.57 L
201.464 198.097 L
201.898 197.624 L
202.332 197.152 L
202.766 196.681 L
203.2 196.21 L
203.634 195.741 L
204.068 195.271 L
204.502 194.803 L
204.936 194.335 L
205.37 193.868 L
205.804 193.401 L
206.238 192.935 L
206.672 192.47 L
207.106 192.005 L
207.54 191.541 L
207.974 191.078 L
208.408 190.616 L
208.842 190.154 L
209.276 189.693 L
209.71 189.232 L
210.144 188.772 L
210.578 188.313 L
211.012 187.854 L
211.446 187.397 L
211.88 186.939 L
212.314 186.483 L
212.748 186.027 L
213.182 185.572 L
213.616 185.117 L
214.05 184.664 L
214.484 184.21 L
214.918 183.758 L
215.352 183.306 L
215.786 182.855 L
216.22 182.405 L
216.654 181.955 L
217.088 181.506 L
217.522 181.057 L
217.956 180.609 L
218.39 180.162 L
218.824 179.716 L
219.258 179.27 L
219.692 178.825 L
220.126 178.381 L
220.56 177.937 L
220.994 177.494 L
221.428 177.051 L
221.862 176.61 L
222.296 176.169 L
222.73 175.728 L
223.164 175.289 L
223.598 174.849 L
224.032 174.411 L
224.466 173.973 L
224.9 173.536 L
225.334 173.1 L
225.768 172.664 L
226.202 172.229 L
226.636 171.795 L
227.07 171.361 L
227.504 170.928 L
227.938 170.496 L
228.372 170.064 L
228.806 169.633 L
229.24 169.203 L
229.674 168.773 L
230.108 168.344 L
230.542 167.916 L
230.976 167.488 L
231.41 167.061 L
231.844 166.635 L
232.278 166.209 L
232.712 165.785 L
233.146 165.36 L
233.58 164.937 L
234.014 164.514 L
234.448 164.091 L
234.882 163.67 L
235.316 163.249 L
235.75 162.829 L
236.184 162.409 L
236.618 161.99 L
237.052 161.572 L
237.486 161.154 L
237.92 160.737 L
238.354 160.321 L
238.788 159.906 L
239.222 159.491 L
239.656 159.077 L
240.09 158.663 L
240.524 158.25 L
240.958 157.838 L
241.392 157.426 L
241.826 157.016 L
242.26 156.605 L
242.694 156.196 L
243.128 155.787 L
243.562 155.379 L
243.996 154.971 L
244.43 154.565 L
244.864 154.158 L
245.298 153.753 L
245.732 153.348 L
246.166 152.944 L
246.6 152.541 L
247.034 152.138 L
247.468 151.736 L
247.902 151.334 L
248.336 150.933 L
248.77 150.533 L
249.204 150.134 L
249.638 149.735 L
250.072 149.337 L
250.506 148.94 L
250.94 148.543 L
251.374 148.147 L
251.808 147.751 L
252.242 147.357 L
252.676 146.962 L
253.11 146.569 L
253.544 146.176 L
253.978 145.784 L
254.412 145.393 L
254.846 145.002 L
255.28 144.612 L
255.714 144.223 L
256.148 143.834 L
256.582 143.446 L
257.016 143.059 L
257.45 142.672 L
257.884 142.286 L
258.318 141.901 L
258.752 141.516 L
259.186 141.132 L
259.62 140.749 L
260.054 140.366 L
260.488 139.984 L
260.922 139.603 L
261.356 139.222 L
261.79 138.842 L
262.224 138.463 L
262.658 138.084 L
263.092 137.706 L
263.526 137.329 L
263.96 136.952 L
264.394 136.576 L
264.828 136.201 L
265.262 135.826 L
265.696 135.453 L
266.13 135.079 L
266.564 134.707 L
266.998 134.335 L
267.432 133.964 L
267.866 133.593 L
268.3 133.223 L
268.734 132.854 L
269.168 132.485 L
269.602 132.117 L
270.036 131.75 L
270.47 131.384 L
270.904 131.018 L
271.338 130.653 L
271.772 130.288 L
272.206 129.924 L
272.64 129.561 L
273.074 129.198 L
273.508 128.837 L
273.942 128.475 L
274.376 128.115 L
274.81 127.755 L
275.244 127.396 L
275.678 127.037 L
276.112 126.68 L
276.546 126.322 L
276.98 125.966 L
277.414 125.61 L
277.848 125.255 L
278.282 124.901 L
278.716 124.547 L
279.15 124.194 L
279.584 123.841 L
280.018 123.489 L
280.452 123.138 L
280.886 122.788 L
281.32 122.438 L
281.754 122.089 L
282.188 121.741 L
282.622 121.393 L
283.056 121.046 L
283.49 120.699 L
283.924 120.354 L
284.358 120.009 L
284.792 119.664 L
285.226 119.321 L
285.66 118.977 L
286.094 118.635 L
286.528 118.293 L
286.962 117.952 L
287.396 117.612 L
287.83 117.272 L
288.264 116.933 L
288.698 116.595 L
289.132 116.257 L
289.566 115.92 L
290 115.584 L
290.434 115.248 L
290.868 114.913 L
291.302 114.579 L
291.736 114.245 L
292.17 113.912 L
292.604 113.58 L
293.038 113.248 L
293.472 112.917 L
293.906 112.587 L
294.34 112.257 L
294.774 111.929 L
295.208 111.6 L
295.642 111.273 L
296.076 110.946 L
296.51 110.619 L
296.944 110.294 L
297.378 109.969 L
297.812 109.645 L
298.246 109.321 L
298.68 108.998 L
299.114 108.676 L
299.548 108.354 L
299.982 108.033 L
300.416 107.713 L
300.85 107.394 L
301.284 107.075 L
301.718 106.757 L
302.152 106.439 L
302.586 106.122 L
303.02 105.806 L
303.454 105.49 L
303.888 105.176 L
304.322 104.861 L
304.756 104.548 L
305.19 104.235 L
305.624 103.923 L
306.058 103.611 L
306.492 103.301 L
306.926 102.99 L
307.36 102.681 L
307.794 102.372 L
308.228 102.064 L
308.662 101.757 L
309.096 101.45 L
309.53 101.144 L
309.964 100.838 L
310.398 100.533 L
310.832 100.229 L
311.266 99.926 L
311.7 99.623 L
312.134 99.321 L
312.568 99.02 L
313.002 98.719 L
313.436 98.419 L
313.87 98.119 L
314.304 97.821 L
314.738 97.522 L
315.172 97.225 L
315.606 96.928 L
316.04 96.632 L
316.474 96.337 L
316.908 96.042 L
317.342 95.748 L
317.776 95.455 L
318.21 95.162 L
318.644 94.87 L
319.078 94.579 L
319.512 94.288 L
319.946 93.998 L
320.38 93.709 L
320.814 93.42 L
321.248 93.132 L
321.682 92.845 L
322.116 92.558 L
322.55 92.272 L
322.984 91.987 L
323.418 91.702 L
323.852 91.418 L
324.286 91.135 L
324.72 90.852 L
325.154 90.57 L
325.588 90.289 L
326.022 90.008 L
326.456 89.728 L
326.89 89.449 L
327.324 89.17 L
327.758 88.893 L
328.192 88.615 L
328.626 88.339 L
329.06 88.063 L
329.494 87.788 L
329.928 87.513 L
330.362 87.239 L
330.796 86.966 L
331.23 86.693 L
331.664 86.421 L
332.098 86.15 L
332.532 85.88 L
332.966 85.61 L
333.4 85.341 L
333.834 85.072 L
334.268 84.804 L
334.702 84.537 L
335.136 84.27 L
335.57 84.005 L
336.004 83.739 L
336.438 83.475 L
336.872 83.211 L
337.306 82.948 L
337.74 82.685 L
338.174 82.424 L
338.608 82.162 L
339.042 81.902 L
339.476 81.642 L
339.91 81.383 L
340.344 81.125 L
340.778 80.867 L
341.212 80.61 L
341.646 80.353 L
342.08 80.097 L
342.514 79.842 L
342.948 79.588 L
343.382 79.334 L
343.816 79.081 L
344.25 78.829 L
344.684 78.577 L
345.118 78.326 L
345.552 78.075 L
345.986 77.826 L
346.42 77.577 L
346.854 77.328 L
347.288 77.081 L
347.722 76.833 L
348.156 76.587 L
348.59 76.341 L
349.024 76.096 L
349.458 75.852 L
349.892 75.608 L
350.326 75.365 L
350.76 75.123 L
351.194 74.881 L
351.628 74.64 L
352.062 74.4 L
352.496 74.16 L
352.93 73.921 L
353.364 73.683 L
353.798 73.445 L
354.232 73.208 L
354.666 72.972 L
355.1 72.736 L
355.534 72.501 L
355.968 72.267 L
356.402 72.033 L
356.836 71.801 L
357.27 71.568 L
357.704 71.337 L
358.138 71.106 L
358.572 70.875 L
359.006 70.646 L
359.44 70.417 L
359.874 70.189 L
360.308 69.961 L
360.742 69.734 L
361.176 69.508 L
361.61 69.282 L
362.044 69.057 L
362.478 68.833 L
362.912 68.61 L
363.346 68.387 L
363.78 68.165 L
364.214 67.943 L
364.648 67.722 L
365.082 67.502 L
365.516 67.282 L
365.95 67.064 L
366.384 66.845 L
366.818 66.628 L
367.252 66.411 L
367.686 66.195 L
368.12 65.979 L
368.554 65.765 L
368.988 65.55 L
369.422 65.337 L
369.856 65.124 L
370.29 64.912 L
370.724 64.701 L
371.158 64.49 L
371.592 64.28 L
372.026 64.07 L
372.46 63.861 L
372.894 63.653 L
373.328 63.446 L
373.762 63.239 L
374.196 63.033 L
374.63 62.828 L
375.064 62.623 L
375.498 62.419 L
375.932 62.215 L
376.366 62.013 L
376.8 61.81 L
377.234 61.609 L
377.668 61.408 L
378.102 61.208 L
378.536 61.009 L
378.97 60.81 L
379.404 60.612 L
379.838 60.415 L
380.272 60.218 L
380.706 60.022 L
381.14 59.827 L
381.574 59.632 L
382.008 59.438 L
382.442 59.245 L
382.876 59.052 L
383.31 58.86 L
383.744 58.669 L
384.178 58.478 L
384.612 58.288 L
385.046 58.099 L
385.48 57.91 L
385.914 57.722 L
386.348 57.535 L
386.782 57.348 L
387.216 57.162 L
387.65 56.977 L
388.084 56.792 L
388.518 56.608 L
388.952 56.425 L
389.386 56.242 L
389.82 56.061 L
390.254 55.879 L
390.688 55.699 L
391.122 55.519 L
391.556 55.34 L
391.99 55.161 L
392.424 54.983 L
392.858 54.806 L
393.292 54.629 L
393.726 54.453 L
394.16 54.278 L
394.594 54.104 L
395.028 53.93 L
395.462 53.757 L
395.896 53.584 L
396.33 53.412 L
396.764 53.241 L
397.198 53.07 L
397.632 52.901 L
398.066 52.731 L
398.5 52.563 L
398.934 52.395 L
399.368 52.228 L
399.802 52.061 L
400.236 51.896 L
400.67 51.73 L
401.104 51.566 L
401.538 51.402 L
401.972 51.239 L
402.406 51.077 L
402.84 50.915 L
403.274 50.754 L
403.708 50.593 L
404.142 50.433 L
404.576 50.274 L
405.01 50.116 L
405.444 49.958 L
405.878 49.801 L
406.312 49.645 L
406.746 49.489 L
407.18 49.334 L
407.614 49.179 L
408.048 49.026 L
408.482 48.873 L
408.916 48.72 L
409.35 48.569 L
409.784 48.417 L
410.218 48.267 L
410.652 48.117 L
411.086 47.968 L
411.52 47.82 L
411.954 47.672 L
412.388 47.525 L
412.822 47.379 L
413.256 47.233 L
413.69 47.088 L
414.124 46.944 L
414.558 46.8 L
414.992 46.657 L
415.426 46.515 L
415.86 46.373 L
416.294 46.232 L
416.728 46.092 L
417.162 45.952 L
417.596 45.813 L
418.03 45.675 L
418.464 45.537 L
418.898 45.401 L
419.332 45.264 L
419.766 45.129 L
420.2 44.994 L
420.634 44.859 L
421.068 44.726 L
421.502 44.593 L
421.936 44.461 L
422.37 44.329 L
422.804 44.198 L
423.238 44.068 L
423.672 43.938 L
424.106 43.809 L
424.54 43.681 L
424.974 43.554 L
425.408 43.427 L
425.842 43.301 L
426.276 43.175 L
426.71 43.05 L
427.144 42.926 L
427.578 42.802 L
428.012 42.68 L
428.446 42.557 L
428.88 42.436 L
429.314 42.315 L
429.748 42.195 L
430.182 42.075 L
430.616 41.957 L
431.05 41.838 L
431.484 41.721 L
431.918 41.604 L
432.352 41.488 L
432.786 41.373 L
433.22 41.258 L
433.654 41.144 L
434.088 41.03 L
434.522 40.917 L
434.956 40.805 L
435.39 40.694 L
435.824 40.583 L
436.258 40.473 L
436.692 40.364 L
437.126 40.255 L
437.56 40.147 L
437.994 40.039 L
438.428 39.933 L
438.862 39.826 L
439.296 39.721 L
439.73 39.616 L
440.164 39.512 L
440.598 39.409 L
441.032 39.306 L
441.466 39.204 L
441.9 39.103 L
442.334 39.002 L
442.768 38.902 L
443.202 38.803 L
443.636 38.704 L
444.07 38.606 L
444.504 38.509 L
444.938 38.412 L
445.372 38.316 L
445.806 38.221 L
446.24 38.126 L
446.674 38.032 L
447.108 37.939 L
447.542 37.846 L
447.976 37.754 L
448.41 37.663 L
448.844 37.572 L
449.278 37.482 L
449.712 37.393 L
450.146 37.304 L
450.58 37.216 L
451.014 37.129 L
451.448 37.042 L
451.882 36.957 L
452.316 36.871 L
452.75 36.787 L
453.184 36.703 L
453.618 36.62 L
454.052 36.537 L
454.486 36.455 L
454.92 36.374 L
455.354 36.293 L
455.788 36.213 L
456.222 36.134 L
456.656 36.056 L
457.09 35.978 L
457.524 35.901 L
457.958 35.824 L
458.392 35.748 L
458.826 35.673 L
459.26 35.598 L
459.694 35.525 L
460.128 35.451 L
460.562 35.379 L
460.996 35.307 L
461.43 35.236 L
461.864 35.165 L
462.298 35.096 L
462.732 35.026 L
463.166 34.958 L
463.6 34.89 L
464.034 34.823 L
464.468 34.757 L
464.902 34.691 L
465.336 34.626 L
465.77 34.561 L
466.204 34.497 L
466.638 34.434 L
467.072 34.372 L
467.506 34.31 L
467.94 34.249 L
468.374 34.189 L
468.808 34.129 L
469.242 34.07 L
469.676 34.011 L
470.11 33.954 L
470.544 33.897 L
470.978 33.84 L
471.412 33.785 L
471.846 33.729 L
472.28 33.675 L
472.714 33.621 L
473.148 33.568 L
473.582 33.516 L
474.016 33.464 L
474.45 33.413 L
474.884 33.363 L
475.318 33.313 L
475.752 33.264 L
476.186 33.216 L
476.62 33.168 L
477.054 33.121 L
477.488 33.075 L
477.922 33.029 L
478.356 32.984 L
478.79 32.94 L
479.224 32.896 L
479.658 32.853 L
480.092 32.811 L
480.526 32.769 L
480.96 32.729 L
481.394 32.688 L
481.828 32.649 L
482.262 32.61 L
482.696 32.571 L
483.13 32.534 L
483.564 32.497 L
483.998 32.461 L
484.432 32.425 L
484.866 32.39 L
485.3 32.356 L
485.734 32.322 L
486.168 32.289 L
486.602 32.257 L
487.036 32.226 L
487.47 32.195 L
487.904 32.165 L
488.338 32.135 L
488.772 32.106 L
489.206 32.078 L
489.64 32.05 L
490.074 32.024 L
490.508 31.997 L
490.942 31.972 L
491.376 31.947 L
491.81 31.923 L
492.244 31.899 L
492.678 31.877 L
493.112 31.854 L
493.546 31.833 L
493.98 31.812 L
494.414 31.792 L
494.848 31.773 L
495.282 31.754 L
495.716 31.736 L
496.15 31.718 L
496.584 31.701 L
497.018 31.685 L
497.452 31.67 L
497.886 31.655 L
498.32 31.641 L
498.754 31.628 L
499.188 31.615 L
499.622 31.603 L
500.056 31.591 L
500.49 31.581 L
500.924 31.57 L
501.358 31.561 L
501.792 31.552 L
502.226 31.544 L
502.66 31.537 L
503.094 31.53 L
503.528 31.524 L
503.962 31.519 L
504.396 31.514 L
504.83 31.51 L
505.264 31.507 L
505.698 31.504 L
506.132 31.502 L
506.566 31.501 L
507 31.5 L
S
GR
GS
[12 12] 0 setdash
2 LJ
3 LW
N
73.434 366.829 M
73.868 366.158 L
74.302 365.488 L
74.736 364.818 L
75.17 364.149 L
75.604 363.481 L
76.038 362.814 L
76.472 362.147 L
76.906 361.481 L
77.34 360.816 L
77.774 360.151 L
78.208 359.487 L
78.642 358.823 L
79.076 358.161 L
79.51 357.499 L
79.944 356.837 L
80.378 356.176 L
80.812 355.516 L
81.246 354.857 L
81.68 354.198 L
82.114 353.54 L
82.548 352.883 L
82.982 352.226 L
83.416 351.57 L
83.85 350.915 L
84.284 350.26 L
84.718 349.606 L
85.152 348.953 L
85.586 348.3 L
86.02 347.648 L
86.454 346.997 L
86.888 346.346 L
87.322 345.696 L
87.756 345.047 L
88.19 344.399 L
88.624 343.751 L
89.058 343.104 L
89.492 342.457 L
89.926 341.811 L
90.36 341.166 L
90.794 340.522 L
91.228 339.878 L
91.662 339.234 L
92.096 338.592 L
92.53 337.95 L
92.964 337.309 L
93.398 336.668 L
93.832 336.028 L
94.266 335.389 L
94.7 334.751 L
95.134 334.113 L
95.568 333.476 L
96.002 332.839 L
96.436 332.203 L
96.87 331.568 L
97.304 330.934 L
97.738 330.3 L
98.172 329.667 L
98.606 329.034 L
99.04 328.402 L
99.474 327.771 L
99.908 327.141 L
100.342 326.511 L
100.776 325.882 L
101.21 325.254 L
101.644 324.626 L
102.078 323.999 L
102.512 323.372 L
102.946 322.747 L
103.38 322.121 L
103.814 321.497 L
104.248 320.873 L
104.682 320.25 L
105.116 319.628 L
105.55 319.006 L
105.984 318.385 L
106.418 317.764 L
106.852 317.145 L
107.286 316.526 L
107.72 315.907 L
108.154 315.29 L
108.588 314.672 L
109.022 314.056 L
109.456 313.44 L
109.89 312.825 L
110.324 312.211 L
110.758 311.598 L
111.192 310.985 L
111.626 310.372 L
112.06 309.761 L
112.494 309.15 L
112.928 308.54 L
113.362 307.93 L
113.796 307.321 L
114.23 306.713 L
114.664 306.106 L
115.098 305.499 L
115.532 304.893 L
115.966 304.287 L
116.4 303.683 L
116.834 303.078 L
117.268 302.475 L
117.702 301.872 L
118.136 301.27 L
118.57 300.669 L
119.004 300.068 L
119.438 299.468 L
119.872 298.868 L
120.306 298.269 L
120.74 297.671 L
121.174 297.074 L
121.608 296.477 L
122.042 295.881 L
122.476 295.286 L
122.91 294.691 L
123.344 294.098 L
123.778 293.504 L
124.212 292.912 L
124.646 292.32 L
125.08 291.728 L
125.514 291.138 L
125.948 290.548 L
126.382 289.958 L
126.816 289.37 L
127.25 288.782 L
127.684 288.194 L
128.118 287.608 L
128.552 287.022 L
128.986 286.436 L
129.42 285.852 L
129.854 285.268 L
130.288 284.684 L
130.722 284.102 L
131.156 283.52 L
131.59 282.939 L
132.024 282.358 L
132.458 281.778 L
132.892 281.198 L
133.326 280.62 L
133.76 280.042 L
134.194 279.465 L
134.628 278.888 L
135.062 278.312 L
135.496 277.737 L
135.93 277.162 L
136.364 276.588 L
136.798 276.015 L
137.232 275.442 L
137.666 274.87 L
138.1 274.299 L
138.534 273.729 L
138.968 273.159 L
139.402 272.59 L
139.836 272.021 L
140.27 271.453 L
140.704 270.886 L
141.138 270.32 L
141.572 269.754 L
142.006 269.189 L
142.44 268.624 L
142.874 268.061 L
143.308 267.498 L
143.742 266.935 L
144.176 266.373 L
144.61 265.812 L
145.044 265.252 L
145.478 264.692 L
145.912 264.133 L
146.346 263.575 L
146.78 263.017 L
147.214 262.46 L
147.648 261.903 L
148.082 261.348 L
148.516 260.793 L
148.95 260.238 L
149.384 259.685 L
149.818 259.132 L
150.252 258.579 L
150.686 258.027 L
151.12 257.476 L
151.554 256.926 L
151.988 256.376 L
152.422 255.827 L
152.856 255.279 L
153.29 254.731 L
153.724 254.184 L
154.158 253.638 L
154.592 253.092 L
155.026 252.547 L
155.46 252.003 L
155.894 251.459 L
156.328 250.916 L
156.762 250.374 L
157.196 249.832 L
157.63 249.291 L
158.064 248.751 L
158.498 248.212 L
158.932 247.673 L
159.366 247.135 L
159.8 246.597 L
160.234 246.06 L
160.668 245.524 L
161.102 244.988 L
161.536 244.453 L
161.97 243.919 L
162.404 243.385 L
162.838 242.852 L
163.272 242.32 L
163.706 241.789 L
164.14 241.258 L
164.574 240.727 L
165.008 240.198 L
165.442 239.669 L
165.876 239.14 L
166.31 238.613 L
166.744 238.086 L
167.178 237.56 L
167.612 237.034 L
168.046 236.509 L
168.48 235.985 L
168.914 235.461 L
169.348 234.939 L
169.782 234.416 L
170.216 233.895 L
170.65 233.374 L
171.084 232.854 L
171.518 232.334 L
171.952 231.816 L
172.386 231.297 L
172.82 230.78 L
173.254 230.263 L
173.688 229.747 L
174.122 229.232 L
174.556 228.717 L
174.99 228.203 L
175.424 227.69 L
175.858 227.177 L
176.292 226.665 L
176.726 226.154 L
177.16 225.643 L
177.594 225.133 L
178.028 224.624 L
178.462 224.115 L
178.896 223.607 L
179.33 223.099 L
179.764 222.593 L
180.198 222.087 L
180.632 221.581 L
181.066 221.077 L
181.5 220.573 L
181.934 220.069 L
182.368 219.567 L
182.802 219.064 L
183.236 218.563 L
183.67 218.062 L
184.104 217.562 L
184.538 217.063 L
184.972 216.564 L
185.406 216.066 L
185.84 215.569 L
186.274 215.072 L
186.708 214.576 L
187.142 214.081 L
187.576 213.586 L
188.01 213.092 L
188.444 212.598 L
188.878 212.106 L
189.312 211.614 L
189.746 211.122 L
190.18 210.632 L
190.614 210.142 L
191.048 209.652 L
191.482 209.164 L
191.916 208.675 L
192.35 208.188 L
192.784 207.701 L
193.218 207.215 L
193.652 206.73 L
194.086 206.245 L
194.52 205.761 L
194.954 205.277 L
195.388 204.795 L
195.822 204.313 L
196.256 203.831 L
196.69 203.35 L
197.124 202.87 L
197.558 202.391 L
197.992 201.912 L
198.426 201.434 L
198.86 200.957 L
199.294 200.48 L
199.728 200.004 L
200.162 199.529 L
200.596 199.054 L
201.03 198.58 L
201.464 198.106 L
201.898 197.634 L
202.332 197.162 L
202.766 196.69 L
203.2 196.22 L
203.634 195.75 L
204.068 195.28 L
204.502 194.812 L
204.936 194.344 L
205.37 193.876 L
205.804 193.41 L
206.238 192.944 L
206.672 192.478 L
207.106 192.014 L
207.54 191.55 L
207.974 191.086 L
208.408 190.623 L
208.842 190.161 L
209.276 189.7 L
209.71 189.239 L
210.144 188.779 L
210.578 188.32 L
211.012 187.862 L
211.446 187.404 L
211.88 186.946 L
212.314 186.49 L
212.748 186.034 L
213.182 185.578 L
213.616 185.124 L
214.05 184.67 L
214.484 184.217 L
214.918 183.764 L
215.352 183.312 L
215.786 182.861 L
216.22 182.41 L
216.654 181.961 L
217.088 181.511 L
217.522 181.063 L
217.956 180.615 L
218.39 180.168 L
218.824 179.722 L
219.258 179.276 L
219.692 178.831 L
220.126 178.386 L
220.56 177.943 L
220.994 177.499 L
221.428 177.057 L
221.862 176.615 L
222.296 176.174 L
222.73 175.734 L
223.164 175.294 L
223.598 174.855 L
224.032 174.416 L
224.466 173.978 L
224.9 173.541 L
225.334 173.105 L
225.768 172.669 L
226.202 172.234 L
226.636 171.799 L
227.07 171.365 L
227.504 170.932 L
227.938 170.5 L
228.372 170.068 L
228.806 169.637 L
229.24 169.206 L
229.674 168.777 L
230.108 168.348 L
230.542 167.919 L
230.976 167.491 L
231.41 167.064 L
231.844 166.638 L
232.278 166.212 L
232.712 165.787 L
233.146 165.362 L
233.58 164.939 L
234.014 164.516 L
234.448 164.093 L
234.882 163.671 L
235.316 163.25 L
235.75 162.83 L
236.184 162.41 L
236.618 161.991 L
237.052 161.573 L
237.486 161.155 L
237.92 160.738 L
238.354 160.322 L
238.788 159.906 L
239.222 159.491 L
239.656 159.077 L
240.09 158.663 L
240.524 158.25 L
240.958 157.838 L
241.392 157.426 L
241.826 157.015 L
242.26 156.605 L
242.694 156.195 L
243.128 155.786 L
243.562 155.378 L
243.996 154.97 L
244.43 154.563 L
244.864 154.157 L
245.298 153.751 L
245.732 153.346 L
246.166 152.942 L
246.6 152.539 L
247.034 152.136 L
247.468 151.733 L
247.902 151.332 L
248.336 150.931 L
248.77 150.531 L
249.204 150.131 L
249.638 149.732 L
250.072 149.334 L
250.506 148.936 L
250.94 148.539 L
251.374 148.143 L
251.808 147.747 L
252.242 147.352 L
252.676 146.958 L
253.11 146.565 L
253.544 146.172 L
253.978 145.78 L
254.412 145.388 L
254.846 144.997 L
255.28 144.607 L
255.714 144.217 L
256.148 143.828 L
256.582 143.44 L
257.016 143.053 L
257.45 142.666 L
257.884 142.28 L
258.318 141.894 L
258.752 141.509 L
259.186 141.125 L
259.62 140.741 L
260.054 140.358 L
260.488 139.976 L
260.922 139.594 L
261.356 139.214 L
261.79 138.833 L
262.224 138.454 L
262.658 138.075 L
263.092 137.696 L
263.526 137.319 L
263.96 136.942 L
264.394 136.566 L
264.828 136.19 L
265.262 135.815 L
265.696 135.441 L
266.13 135.068 L
266.564 134.695 L
266.998 134.323 L
267.432 133.951 L
267.866 133.58 L
268.3 133.21 L
268.734 132.841 L
269.168 132.472 L
269.602 132.104 L
270.036 131.736 L
270.47 131.37 L
270.904 131.003 L
271.338 130.638 L
271.772 130.273 L
272.206 129.909 L
272.64 129.546 L
273.074 129.183 L
273.508 128.821 L
273.942 128.459 L
274.376 128.098 L
274.81 127.738 L
275.244 127.379 L
275.678 127.02 L
276.112 126.662 L
276.546 126.304 L
276.98 125.947 L
277.414 125.591 L
277.848 125.236 L
278.282 124.881 L
278.716 124.527 L
279.15 124.174 L
279.584 123.821 L
280.018 123.469 L
280.452 123.117 L
280.886 122.767 L
281.32 122.417 L
281.754 122.067 L
282.188 121.719 L
282.622 121.371 L
283.056 121.024 L
283.49 120.677 L
283.924 120.331 L
284.358 119.986 L
284.792 119.641 L
285.226 119.298 L
285.66 118.955 L
286.094 118.612 L
286.528 118.27 L
286.962 117.929 L
287.396 117.589 L
287.83 117.249 L
288.264 116.91 L
288.698 116.571 L
289.132 116.233 L
289.566 115.896 L
290 115.56 L
290.434 115.224 L
290.868 114.889 L
291.302 114.555 L
291.736 114.221 L
292.17 113.888 L
292.604 113.555 L
293.038 113.224 L
293.472 112.893 L
293.906 112.562 L
294.34 112.233 L
294.774 111.904 L
295.208 111.575 L
295.642 111.248 L
296.076 110.921 L
296.51 110.595 L
296.944 110.269 L
297.378 109.944 L
297.812 109.62 L
298.246 109.296 L
298.68 108.973 L
299.114 108.651 L
299.548 108.33 L
299.982 108.009 L
300.416 107.689 L
300.85 107.369 L
301.284 107.051 L
301.718 106.732 L
302.152 106.415 L
302.586 106.098 L
303.02 105.782 L
303.454 105.467 L
303.888 105.152 L
304.322 104.838 L
304.756 104.524 L
305.19 104.212 L
305.624 103.899 L
306.058 103.588 L
306.492 103.277 L
306.926 102.967 L
307.36 102.658 L
307.794 102.349 L
308.228 102.041 L
308.662 101.734 L
309.096 101.427 L
309.53 101.121 L
309.964 100.815 L
310.398 100.51 L
310.832 100.206 L
311.266 99.903 L
311.7 99.6 L
312.134 99.298 L
312.568 98.997 L
313.002 98.696 L
313.436 98.396 L
313.87 98.096 L
314.304 97.798 L
314.738 97.5 L
315.172 97.202 L
315.606 96.906 L
316.04 96.609 L
316.474 96.314 L
316.908 96.02 L
317.342 95.726 L
317.776 95.432 L
318.21 95.139 L
318.644 94.847 L
319.078 94.556 L
319.512 94.266 L
319.946 93.976 L
320.38 93.686 L
320.814 93.398 L
321.248 93.11 L
321.682 92.823 L
322.116 92.536 L
322.55 92.25 L
322.984 91.965 L
323.418 91.681 L
323.852 91.397 L
324.286 91.114 L
324.72 90.831 L
325.154 90.55 L
325.588 90.268 L
326.022 89.988 L
326.456 89.708 L
326.89 89.429 L
327.324 89.15 L
327.758 88.873 L
328.192 88.595 L
328.626 88.319 L
329.06 88.043 L
329.494 87.768 L
329.928 87.494 L
330.362 87.22 L
330.796 86.947 L
331.23 86.674 L
331.664 86.403 L
332.098 86.132 L
332.532 85.861 L
332.966 85.592 L
333.4 85.323 L
333.834 85.054 L
334.268 84.787 L
334.702 84.52 L
335.136 84.253 L
335.57 83.988 L
336.004 83.723 L
336.438 83.458 L
336.872 83.195 L
337.306 82.932 L
337.74 82.669 L
338.174 82.408 L
338.608 82.147 L
339.042 81.887 L
339.476 81.627 L
339.91 81.368 L
340.344 81.11 L
340.778 80.852 L
341.212 80.596 L
341.646 80.339 L
342.08 80.084 L
342.514 79.829 L
342.948 79.575 L
343.382 79.321 L
343.816 79.068 L
344.25 78.816 L
344.684 78.565 L
345.118 78.314 L
345.552 78.063 L
345.986 77.814 L
346.42 77.565 L
346.854 77.316 L
347.288 77.069 L
347.722 76.822 L
348.156 76.576 L
348.59 76.33 L
349.024 76.085 L
349.458 75.841 L
349.892 75.597 L
350.326 75.354 L
350.76 75.112 L
351.194 74.87 L
351.628 74.629 L
352.062 74.389 L
352.496 74.149 L
352.93 73.911 L
353.364 73.672 L
353.798 73.435 L
354.232 73.198 L
354.666 72.962 L
355.1 72.726 L
355.534 72.491 L
355.968 72.257 L
356.402 72.023 L
356.836 71.79 L
357.27 71.558 L
357.704 71.326 L
358.138 71.096 L
358.572 70.865 L
359.006 70.636 L
359.44 70.407 L
359.874 70.179 L
360.308 69.951 L
360.742 69.725 L
361.176 69.498 L
361.61 69.273 L
362.044 69.048 L
362.478 68.824 L
362.912 68.601 L
363.346 68.378 L
363.78 68.156 L
364.214 67.935 L
364.648 67.714 L
365.082 67.494 L
365.516 67.275 L
365.95 67.056 L
366.384 66.838 L
366.818 66.621 L
367.252 66.404 L
367.686 66.188 L
368.12 65.973 L
368.554 65.759 L
368.988 65.545 L
369.422 65.332 L
369.856 65.119 L
370.29 64.908 L
370.724 64.697 L
371.158 64.486 L
371.592 64.276 L
372.026 64.067 L
372.46 63.859 L
372.894 63.651 L
373.328 63.444 L
373.762 63.238 L
374.196 63.032 L
374.63 62.827 L
375.064 62.622 L
375.498 62.419 L
375.932 62.216 L
376.366 62.013 L
376.8 61.812 L
377.234 61.611 L
377.668 61.41 L
378.102 61.21 L
378.536 61.011 L
378.97 60.813 L
379.404 60.615 L
379.838 60.418 L
380.272 60.221 L
380.706 60.026 L
381.14 59.831 L
381.574 59.636 L
382.008 59.442 L
382.442 59.249 L
382.876 59.057 L
383.31 58.865 L
383.744 58.674 L
384.178 58.483 L
384.612 58.294 L
385.046 58.105 L
385.48 57.916 L
385.914 57.728 L
386.348 57.541 L
386.782 57.355 L
387.216 57.169 L
387.65 56.984 L
388.084 56.8 L
388.518 56.616 L
388.952 56.433 L
389.386 56.25 L
389.82 56.068 L
390.254 55.887 L
390.688 55.707 L
391.122 55.527 L
391.556 55.348 L
391.99 55.17 L
392.424 54.992 L
392.858 54.815 L
393.292 54.638 L
393.726 54.462 L
394.16 54.287 L
394.594 54.113 L
395.028 53.939 L
395.462 53.766 L
395.896 53.594 L
396.33 53.422 L
396.764 53.251 L
397.198 53.081 L
397.632 52.911 L
398.066 52.742 L
398.5 52.573 L
398.934 52.406 L
399.368 52.239 L
399.802 52.072 L
400.236 51.907 L
400.67 51.742 L
401.104 51.577 L
401.538 51.414 L
401.972 51.251 L
402.406 51.088 L
402.84 50.927 L
403.274 50.765 L
403.708 50.605 L
404.142 50.445 L
404.576 50.286 L
405.01 50.128 L
405.444 49.97 L
405.878 49.813 L
406.312 49.657 L
406.746 49.501 L
407.18 49.346 L
407.614 49.192 L
408.048 49.038 L
408.482 48.885 L
408.916 48.732 L
409.35 48.581 L
409.784 48.43 L
410.218 48.279 L
410.652 48.129 L
411.086 47.98 L
411.52 47.832 L
411.954 47.684 L
412.388 47.537 L
412.822 47.391 L
413.256 47.245 L
413.69 47.1 L
414.124 46.956 L
414.558 46.812 L
414.992 46.669 L
415.426 46.527 L
415.86 46.385 L
416.294 46.244 L
416.728 46.104 L
417.162 45.964 L
417.596 45.825 L
418.03 45.687 L
418.464 45.549 L
418.898 45.412 L
419.332 45.276 L
419.766 45.14 L
420.2 45.005 L
420.634 44.871 L
421.068 44.737 L
421.502 44.604 L
421.936 44.472 L
422.37 44.34 L
422.804 44.209 L
423.238 44.079 L
423.672 43.95 L
424.106 43.821 L
424.54 43.692 L
424.974 43.565 L
425.408 43.438 L
425.842 43.312 L
426.276 43.186 L
426.71 43.061 L
427.144 42.937 L
427.578 42.814 L
428.012 42.691 L
428.446 42.569 L
428.88 42.447 L
429.314 42.327 L
429.748 42.206 L
430.182 42.087 L
430.616 41.968 L
431.05 41.85 L
431.484 41.733 L
431.918 41.616 L
432.352 41.5 L
432.786 41.385 L
433.22 41.27 L
433.654 41.156 L
434.088 41.042 L
434.522 40.929 L
434.956 40.817 L
435.39 40.706 L
435.824 40.595 L
436.258 40.485 L
436.692 40.375 L
437.126 40.267 L
437.56 40.159 L
437.994 40.051 L
438.428 39.944 L
438.862 39.838 L
439.296 39.733 L
439.73 39.628 L
440.164 39.524 L
440.598 39.421 L
441.032 39.318 L
441.466 39.216 L
441.9 39.114 L
442.334 39.014 L
442.768 38.913 L
443.202 38.814 L
443.636 38.715 L
444.07 38.617 L
444.504 38.52 L
444.938 38.423 L
445.372 38.327 L
445.806 38.232 L
446.24 38.137 L
446.674 38.043 L
447.108 37.95 L
447.542 37.857 L
447.976 37.765 L
448.41 37.674 L
448.844 37.583 L
449.278 37.493 L
449.712 37.404 L
450.146 37.315 L
450.58 37.227 L
451.014 37.14 L
451.448 37.053 L
451.882 36.967 L
452.316 36.881 L
452.75 36.797 L
453.184 36.713 L
453.618 36.63 L
454.052 36.547 L
454.486 36.465 L
454.92 36.384 L
455.354 36.303 L
455.788 36.223 L
456.222 36.144 L
456.656 36.065 L
457.09 35.987 L
457.524 35.91 L
457.958 35.833 L
458.392 35.757 L
458.826 35.682 L
459.26 35.607 L
459.694 35.533 L
460.128 35.46 L
460.562 35.388 L
460.996 35.316 L
461.43 35.244 L
461.864 35.174 L
462.298 35.104 L
462.732 35.035 L
463.166 34.966 L
463.6 34.898 L
464.034 34.831 L
464.468 34.764 L
464.902 34.699 L
465.336 34.633 L
465.77 34.569 L
466.204 34.505 L
466.638 34.442 L
467.072 34.379 L
467.506 34.318 L
467.94 34.257 L
468.374 34.196 L
468.808 34.136 L
469.242 34.077 L
469.676 34.019 L
470.11 33.961 L
470.544 33.904 L
470.978 33.847 L
471.412 33.792 L
471.846 33.737 L
472.28 33.682 L
472.714 33.628 L
473.148 33.575 L
473.582 33.523 L
474.016 33.471 L
474.45 33.42 L
474.884 33.369 L
475.318 33.319 L
475.752 33.27 L
476.186 33.222 L
476.62 33.174 L
477.054 33.127 L
477.488 33.081 L
477.922 33.035 L
478.356 32.99 L
478.79 32.945 L
479.224 32.902 L
479.658 32.859 L
480.092 32.816 L
480.526 32.775 L
480.96 32.733 L
481.394 32.693 L
481.828 32.653 L
482.262 32.614 L
482.696 32.576 L
483.13 32.538 L
483.564 32.501 L
483.998 32.465 L
484.432 32.429 L
484.866 32.394 L
485.3 32.36 L
485.734 32.326 L
486.168 32.293 L
486.602 32.261 L
487.036 32.229 L
487.47 32.198 L
487.904 32.168 L
488.338 32.138 L
488.772 32.109 L
489.206 32.081 L
489.64 32.053 L
490.074 32.026 L
490.508 32 L
490.942 31.974 L
491.376 31.949 L
491.81 31.925 L
492.244 31.901 L
492.678 31.879 L
493.112 31.856 L
493.546 31.835 L
493.98 31.814 L
494.414 31.794 L
494.848 31.774 L
495.282 31.755 L
495.716 31.737 L
496.15 31.72 L
496.584 31.703 L
497.018 31.687 L
497.452 31.671 L
497.886 31.656 L
498.32 31.642 L
498.754 31.629 L
499.188 31.616 L
499.622 31.604 L
500.056 31.592 L
500.49 31.581 L
500.924 31.571 L
501.358 31.562 L
501.792 31.553 L
502.226 31.545 L
502.66 31.537 L
503.094 31.531 L
503.528 31.524 L
503.962 31.519 L
504.396 31.514 L
504.83 31.51 L
505.264 31.507 L
505.698 31.504 L
506.132 31.502 L
506.566 31.501 L
507 31.5 L
S
GR
GS
1 GC
N
380.5 358 M
380.5 315.5 L
497 315.5 L
497 358 L
cp
f
GR
GS
[1 0 0 1 417.5 327] CT
/Helvetica 16.2 F
GS
[1 0 0 1 0 0] CT
0 6 moveto 
1 -1 scale
(Analytic) t 
GR
GR
GS
1 0 0 RC
1 LJ
3 LW
N
384.5 327 M
414.5 327 L
S
GR
GS
[1 0 0 1 417.5 346.5] CT
/Helvetica 16.2 F
GS
[1 0 0 1 0 0] CT
0 6 moveto 
1 -1 scale
(Simulation) t 
GR
GR
GS
[12 12] 0 setdash
2 LJ
3 LW
N
384.5 346.5 M
414.5 346.5 L
S
GR
GS
0.149 GC
10.0 ML
0.5 LW
N
380.5 358 M
380.5 315.5 L
497 315.5 L
497 358 L
cp
S
GR
%%Trailer
%%Pages: 1
%%EOF
