%!PS-Adobe-3.0 EPSF-3.0
%%Creator: (MATLAB, The Mathworks, Inc. Version 9.1.0.441655 \(R2016b\). Operating System: Mac OS X)
%%Title: /Users/yuyinghao/research/simulations/cache_sharing_game/figures/expected_utility_exp.eps
%%CreationDate: 2018-05-03T21:43:13
%%Pages: (atend)
%%BoundingBox: 0 0 576 407
%%LanguageLevel: 3
%%EndComments
%%BeginProlog
%%BeginResource: procset (Apache XML Graphics Std ProcSet) 1.2 0
%%Version: 1.2 0
%%Copyright: (Copyright 2001-2003,2010 The Apache Software Foundation. License terms: http://www.apache.org/licenses/LICENSE-2.0)
/bd{bind def}bind def
/ld{load def}bd
/GR/grestore ld
/M/moveto ld
/LJ/setlinejoin ld
/C/curveto ld
/f/fill ld
/LW/setlinewidth ld
/GC/setgray ld
/t/show ld
/N/newpath ld
/CT/concat ld
/cp/closepath ld
/S/stroke ld
/L/lineto ld
/CC/setcmykcolor ld
/A/ashow ld
/GS/gsave ld
/RC/setrgbcolor ld
/RM/rmoveto ld
/ML/setmiterlimit ld
/re {4 2 roll M
1 index 0 rlineto
0 exch rlineto
neg 0 rlineto
cp } bd
/_ctm matrix def
/_tm matrix def
/BT { _ctm currentmatrix pop matrix _tm copy pop 0 0 moveto } bd
/ET { _ctm setmatrix } bd
/iTm { _ctm setmatrix _tm concat } bd
/Tm { _tm astore pop iTm 0 0 moveto } bd
/ux 0.0 def
/uy 0.0 def
/F {
  /Tp exch def
  /Tf exch def
  Tf findfont Tp scalefont setfont
  /cf Tf def  /cs Tp def
} bd
/ULS {currentpoint /uy exch def /ux exch def} bd
/ULE {
  /Tcx currentpoint pop def
  gsave
  newpath
  cf findfont cs scalefont dup
  /FontMatrix get 0 get /Ts exch def /FontInfo get dup
  /UnderlinePosition get Ts mul /To exch def
  /UnderlineThickness get Ts mul /Tt exch def
  ux uy To add moveto  Tcx uy To add lineto
  Tt setlinewidth stroke
  grestore
} bd
/OLE {
  /Tcx currentpoint pop def
  gsave
  newpath
  cf findfont cs scalefont dup
  /FontMatrix get 0 get /Ts exch def /FontInfo get dup
  /UnderlinePosition get Ts mul /To exch def
  /UnderlineThickness get Ts mul /Tt exch def
  ux uy To add cs add moveto Tcx uy To add cs add lineto
  Tt setlinewidth stroke
  grestore
} bd
/SOE {
  /Tcx currentpoint pop def
  gsave
  newpath
  cf findfont cs scalefont dup
  /FontMatrix get 0 get /Ts exch def /FontInfo get dup
  /UnderlinePosition get Ts mul /To exch def
  /UnderlineThickness get Ts mul /Tt exch def
  ux uy To add cs 10 mul 26 idiv add moveto Tcx uy To add cs 10 mul 26 idiv add lineto
  Tt setlinewidth stroke
  grestore
} bd
/QT {
/Y22 exch store
/X22 exch store
/Y21 exch store
/X21 exch store
currentpoint
/Y21 load 2 mul add 3 div exch
/X21 load 2 mul add 3 div exch
/X21 load 2 mul /X22 load add 3 div
/Y21 load 2 mul /Y22 load add 3 div
/X22 load /Y22 load curveto
} bd
/SSPD {
dup length /d exch dict def
{
/v exch def
/k exch def
currentpagedevice k known {
/cpdv currentpagedevice k get def
v cpdv ne {
/upd false def
/nullv v type /nulltype eq def
/nullcpdv cpdv type /nulltype eq def
nullv nullcpdv or
{
/upd true def
} {
/sametype v type cpdv type eq def
sametype {
v type /arraytype eq {
/vlen v length def
/cpdvlen cpdv length def
vlen cpdvlen eq {
0 1 vlen 1 sub {
/i exch def
/obj v i get def
/cpdobj cpdv i get def
obj cpdobj ne {
/upd true def
exit
} if
} for
} {
/upd true def
} ifelse
} {
v type /dicttype eq {
v {
/dv exch def
/dk exch def
/cpddv cpdv dk get def
dv cpddv ne {
/upd true def
exit
} if
} forall
} {
/upd true def
} ifelse
} ifelse
} if
} ifelse
upd true eq {
d k v put
} if
} if
} if
} forall
d length 0 gt {
d setpagedevice
} if
} bd
/RE { % /NewFontName [NewEncodingArray] /FontName RE -
  findfont dup length dict begin
  {
    1 index /FID ne
    {def} {pop pop} ifelse
  } forall
  /Encoding exch def
  /FontName 1 index def
  currentdict definefont pop
  end
} bind def
%%EndResource
%%BeginResource: procset (Apache XML Graphics EPS ProcSet) 1.0 0
%%Version: 1.0 0
%%Copyright: (Copyright 2002-2003 The Apache Software Foundation. License terms: http://www.apache.org/licenses/LICENSE-2.0)
/BeginEPSF { %def
/b4_Inc_state save def         % Save state for cleanup
/dict_count countdictstack def % Count objects on dict stack
/op_count count 1 sub def      % Count objects on operand stack
userdict begin                 % Push userdict on dict stack
/showpage { } def              % Redefine showpage, { } = null proc
0 setgray 0 setlinecap         % Prepare graphics state
1 setlinewidth 0 setlinejoin
10 setmiterlimit [ ] 0 setdash newpath
/languagelevel where           % If level not equal to 1 then
{pop languagelevel             % set strokeadjust and
1 ne                           % overprint to their defaults.
{false setstrokeadjust false setoverprint
} if
} if
} bd
/EndEPSF { %def
count op_count sub {pop} repeat            % Clean up stacks
countdictstack dict_count sub {end} repeat
b4_Inc_state restore
} bd
%%EndResource
%FOPBeginFontDict
%%IncludeResource: font Courier-Bold
%%IncludeResource: font Helvetica
%%IncludeResource: font Courier-BoldOblique
%%IncludeResource: font Courier-Oblique
%%IncludeResource: font Times-Roman
%%IncludeResource: font Helvetica-BoldOblique
%%IncludeResource: font Helvetica-Bold
%%IncludeResource: font Helvetica-Oblique
%%IncludeResource: font Times-BoldItalic
%%IncludeResource: font Courier
%%IncludeResource: font Times-Italic
%%IncludeResource: font Times-Bold
%%IncludeResource: font Symbol
%%IncludeResource: font ZapfDingbats
%FOPEndFontDict
%%BeginResource: encoding WinAnsiEncoding
/WinAnsiEncoding [
/.notdef /.notdef /.notdef /.notdef /.notdef
/.notdef /.notdef /.notdef /.notdef /.notdef
/.notdef /.notdef /.notdef /.notdef /.notdef
/.notdef /.notdef /.notdef /.notdef /.notdef
/.notdef /.notdef /.notdef /.notdef /.notdef
/.notdef /.notdef /.notdef /.notdef /.notdef
/.notdef /.notdef /space /exclam /quotedbl
/numbersign /dollar /percent /ampersand /quotesingle
/parenleft /parenright /asterisk /plus /comma
/hyphen /period /slash /zero /one
/two /three /four /five /six
/seven /eight /nine /colon /semicolon
/less /equal /greater /question /at
/A /B /C /D /E
/F /G /H /I /J
/K /L /M /N /O
/P /Q /R /S /T
/U /V /W /X /Y
/Z /bracketleft /backslash /bracketright /asciicircum
/underscore /quoteleft /a /b /c
/d /e /f /g /h
/i /j /k /l /m
/n /o /p /q /r
/s /t /u /v /w
/x /y /z /braceleft /bar
/braceright /asciitilde /bullet /Euro /bullet
/quotesinglbase /florin /quotedblbase /ellipsis /dagger
/daggerdbl /circumflex /perthousand /Scaron /guilsinglleft
/OE /bullet /Zcaron /bullet /bullet
/quoteleft /quoteright /quotedblleft /quotedblright /bullet
/endash /emdash /asciitilde /trademark /scaron
/guilsinglright /oe /bullet /zcaron /Ydieresis
/space /exclamdown /cent /sterling /currency
/yen /brokenbar /section /dieresis /copyright
/ordfeminine /guillemotleft /logicalnot /sfthyphen /registered
/macron /degree /plusminus /twosuperior /threesuperior
/acute /mu /paragraph /middot /cedilla
/onesuperior /ordmasculine /guillemotright /onequarter /onehalf
/threequarters /questiondown /Agrave /Aacute /Acircumflex
/Atilde /Adieresis /Aring /AE /Ccedilla
/Egrave /Eacute /Ecircumflex /Edieresis /Igrave
/Iacute /Icircumflex /Idieresis /Eth /Ntilde
/Ograve /Oacute /Ocircumflex /Otilde /Odieresis
/multiply /Oslash /Ugrave /Uacute /Ucircumflex
/Udieresis /Yacute /Thorn /germandbls /agrave
/aacute /acircumflex /atilde /adieresis /aring
/ae /ccedilla /egrave /eacute /ecircumflex
/edieresis /igrave /iacute /icircumflex /idieresis
/eth /ntilde /ograve /oacute /ocircumflex
/otilde /odieresis /divide /oslash /ugrave
/uacute /ucircumflex /udieresis /yacute /thorn
/ydieresis
] def
%%EndResource
%FOPBeginFontReencode
/Courier-Bold findfont
dup length dict begin
  {1 index /FID ne {def} {pop pop} ifelse} forall
  /Encoding WinAnsiEncoding def
  currentdict
end
/Courier-Bold exch definefont pop
/Helvetica findfont
dup length dict begin
  {1 index /FID ne {def} {pop pop} ifelse} forall
  /Encoding WinAnsiEncoding def
  currentdict
end
/Helvetica exch definefont pop
/Courier-BoldOblique findfont
dup length dict begin
  {1 index /FID ne {def} {pop pop} ifelse} forall
  /Encoding WinAnsiEncoding def
  currentdict
end
/Courier-BoldOblique exch definefont pop
/Courier-Oblique findfont
dup length dict begin
  {1 index /FID ne {def} {pop pop} ifelse} forall
  /Encoding WinAnsiEncoding def
  currentdict
end
/Courier-Oblique exch definefont pop
/Times-Roman findfont
dup length dict begin
  {1 index /FID ne {def} {pop pop} ifelse} forall
  /Encoding WinAnsiEncoding def
  currentdict
end
/Times-Roman exch definefont pop
/Helvetica-BoldOblique findfont
dup length dict begin
  {1 index /FID ne {def} {pop pop} ifelse} forall
  /Encoding WinAnsiEncoding def
  currentdict
end
/Helvetica-BoldOblique exch definefont pop
/Helvetica-Bold findfont
dup length dict begin
  {1 index /FID ne {def} {pop pop} ifelse} forall
  /Encoding WinAnsiEncoding def
  currentdict
end
/Helvetica-Bold exch definefont pop
/Helvetica-Oblique findfont
dup length dict begin
  {1 index /FID ne {def} {pop pop} ifelse} forall
  /Encoding WinAnsiEncoding def
  currentdict
end
/Helvetica-Oblique exch definefont pop
/Times-BoldItalic findfont
dup length dict begin
  {1 index /FID ne {def} {pop pop} ifelse} forall
  /Encoding WinAnsiEncoding def
  currentdict
end
/Times-BoldItalic exch definefont pop
/Courier findfont
dup length dict begin
  {1 index /FID ne {def} {pop pop} ifelse} forall
  /Encoding WinAnsiEncoding def
  currentdict
end
/Courier exch definefont pop
/Times-Italic findfont
dup length dict begin
  {1 index /FID ne {def} {pop pop} ifelse} forall
  /Encoding WinAnsiEncoding def
  currentdict
end
/Times-Italic exch definefont pop
/Times-Bold findfont
dup length dict begin
  {1 index /FID ne {def} {pop pop} ifelse} forall
  /Encoding WinAnsiEncoding def
  currentdict
end
/Times-Bold exch definefont pop
%FOPEndFontReencode
%%EndProlog
%%Page: 1 1
%%PageBoundingBox: 0 0 576 407
%%BeginPageSetup
[1 0 0 -1 0 407] CT
%%EndPageSetup
GS
1 GC
N
0 0 576 407 re
f
GR
GS
1 GC
N
0 0 576 407 re
f
GR
GS
1 GC
N
75 362 M
521.5 362 L
521.5 30.5 L
75 30.5 L
cp
f
GR
GS
0.873 GC
1 LJ
3 LW
N
75 362 M
75 30.5 L
S
GR
GS
0.873 GC
1 LJ
3 LW
N
124.611 362 M
124.611 30.5 L
S
GR
GS
0.873 GC
1 LJ
3 LW
N
174.222 362 M
174.222 30.5 L
S
GR
GS
0.873 GC
1 LJ
3 LW
N
223.833 362 M
223.833 30.5 L
S
GR
GS
0.873 GC
1 LJ
3 LW
N
273.444 362 M
273.444 30.5 L
S
GR
GS
0.873 GC
1 LJ
3 LW
N
323.056 362 M
323.056 30.5 L
S
GR
GS
0.873 GC
1 LJ
3 LW
N
372.667 362 M
372.667 30.5 L
S
GR
GS
0.873 GC
1 LJ
3 LW
N
422.278 362 M
422.278 30.5 L
S
GR
GS
0.873 GC
1 LJ
3 LW
N
471.889 362 M
471.889 30.5 L
S
GR
GS
0.873 GC
1 LJ
3 LW
N
521.5 362 M
521.5 30.5 L
S
GR
GS
0.873 GC
1 LJ
3 LW
N
521.5 362 M
75 362 L
S
GR
GS
0.873 GC
1 LJ
3 LW
N
521.5 306.75 M
75 306.75 L
S
GR
GS
0.873 GC
1 LJ
3 LW
N
521.5 251.5 M
75 251.5 L
S
GR
GS
0.873 GC
1 LJ
3 LW
N
521.5 196.25 M
75 196.25 L
S
GR
GS
0.873 GC
1 LJ
3 LW
N
521.5 141 M
75 141 L
S
GR
GS
0.873 GC
1 LJ
3 LW
N
521.5 85.75 M
75 85.75 L
S
GR
GS
0.873 GC
1 LJ
3 LW
N
521.5 30.5 M
75 30.5 L
S
GR
GS
0.149 GC
2 setlinecap
1 LJ
3 LW
N
75 362 M
521.5 362 L
S
GR
GS
0.149 GC
2 setlinecap
1 LJ
3 LW
N
75 30.5 M
521.5 30.5 L
S
GR
GS
0.149 GC
2 setlinecap
1 LJ
3 LW
N
75 362 M
75 357.535 L
S
GR
GS
0.149 GC
2 setlinecap
1 LJ
3 LW
N
124.611 362 M
124.611 357.535 L
S
GR
GS
0.149 GC
2 setlinecap
1 LJ
3 LW
N
174.222 362 M
174.222 357.535 L
S
GR
GS
0.149 GC
2 setlinecap
1 LJ
3 LW
N
223.833 362 M
223.833 357.535 L
S
GR
GS
0.149 GC
2 setlinecap
1 LJ
3 LW
N
273.444 362 M
273.444 357.535 L
S
GR
GS
0.149 GC
2 setlinecap
1 LJ
3 LW
N
323.056 362 M
323.056 357.535 L
S
GR
GS
0.149 GC
2 setlinecap
1 LJ
3 LW
N
372.667 362 M
372.667 357.535 L
S
GR
GS
0.149 GC
2 setlinecap
1 LJ
3 LW
N
422.278 362 M
422.278 357.535 L
S
GR
GS
0.149 GC
2 setlinecap
1 LJ
3 LW
N
471.889 362 M
471.889 357.535 L
S
GR
GS
0.149 GC
2 setlinecap
1 LJ
3 LW
N
521.5 362 M
521.5 357.535 L
S
GR
GS
0.149 GC
2 setlinecap
1 LJ
3 LW
N
75 30.5 M
75 34.965 L
S
GR
GS
0.149 GC
2 setlinecap
1 LJ
3 LW
N
124.611 30.5 M
124.611 34.965 L
S
GR
GS
0.149 GC
2 setlinecap
1 LJ
3 LW
N
174.222 30.5 M
174.222 34.965 L
S
GR
GS
0.149 GC
2 setlinecap
1 LJ
3 LW
N
223.833 30.5 M
223.833 34.965 L
S
GR
GS
0.149 GC
2 setlinecap
1 LJ
3 LW
N
273.444 30.5 M
273.444 34.965 L
S
GR
GS
0.149 GC
2 setlinecap
1 LJ
3 LW
N
323.056 30.5 M
323.056 34.965 L
S
GR
GS
0.149 GC
2 setlinecap
1 LJ
3 LW
N
372.667 30.5 M
372.667 34.965 L
S
GR
GS
0.149 GC
2 setlinecap
1 LJ
3 LW
N
422.278 30.5 M
422.278 34.965 L
S
GR
GS
0.149 GC
2 setlinecap
1 LJ
3 LW
N
471.889 30.5 M
471.889 34.965 L
S
GR
GS
0.149 GC
2 setlinecap
1 LJ
3 LW
N
521.5 30.5 M
521.5 34.965 L
S
GR
GS
[1 0 0 1 75 366.39984] CT
0.149 GC
/Helvetica 12 F
GS
[1 0 0 1 0 0] CT
-3.5 12 moveto 
1 -1 scale
(1) t 
GR
GR
GS
[1 0 0 1 124.61111 366.39984] CT
0.149 GC
/Helvetica 12 F
GS
[1 0 0 1 0 0] CT
-3.5 12 moveto 
1 -1 scale
(2) t 
GR
GR
GS
[1 0 0 1 174.22223 366.39984] CT
0.149 GC
/Helvetica 12 F
GS
[1 0 0 1 0 0] CT
-3.5 12 moveto 
1 -1 scale
(3) t 
GR
GR
GS
[1 0 0 1 223.83333 366.39984] CT
0.149 GC
/Helvetica 12 F
GS
[1 0 0 1 0 0] CT
-3.5 12 moveto 
1 -1 scale
(4) t 
GR
GR
GS
[1 0 0 1 273.44446 366.39984] CT
0.149 GC
/Helvetica 12 F
GS
[1 0 0 1 0 0] CT
-3.5 12 moveto 
1 -1 scale
(5) t 
GR
GR
GS
[1 0 0 1 323.05554 366.39984] CT
0.149 GC
/Helvetica 12 F
GS
[1 0 0 1 0 0] CT
-3.5 12 moveto 
1 -1 scale
(6) t 
GR
GR
GS
[1 0 0 1 372.66666 366.39984] CT
0.149 GC
/Helvetica 12 F
GS
[1 0 0 1 0 0] CT
-3.5 12 moveto 
1 -1 scale
(7) t 
GR
GR
GS
[1 0 0 1 422.27777 366.39984] CT
0.149 GC
/Helvetica 12 F
GS
[1 0 0 1 0 0] CT
-3.5 12 moveto 
1 -1 scale
(8) t 
GR
GR
GS
[1 0 0 1 471.88889 366.39984] CT
0.149 GC
/Helvetica 12 F
GS
[1 0 0 1 0 0] CT
-3.5 12 moveto 
1 -1 scale
(9) t 
GR
GR
GS
[1 0 0 1 521.5 366.39984] CT
0.149 GC
/Helvetica 12 F
GS
[1 0 0 1 0 0] CT
-7 12 moveto 
1 -1 scale
(10) t 
GR
GR
GS
[1 0 0 1 298.25021 381.89975] CT
0.149 GC
/Helvetica 13.2 F
GS
[1 0 0 1 0 0] CT
-100.5 13 moveto 
1 -1 scale
(Users ordered by action sequence) t 
GR
GR
GS
0.149 GC
2 setlinecap
1 LJ
3 LW
N
75 362 M
75 30.5 L
S
GR
GS
0.149 GC
2 setlinecap
1 LJ
3 LW
N
521.5 362 M
521.5 30.5 L
S
GR
GS
0.149 GC
2 setlinecap
1 LJ
3 LW
N
75 362 M
79.465 362 L
S
GR
GS
0.149 GC
2 setlinecap
1 LJ
3 LW
N
75 306.75 M
79.465 306.75 L
S
GR
GS
0.149 GC
2 setlinecap
1 LJ
3 LW
N
75 251.5 M
79.465 251.5 L
S
GR
GS
0.149 GC
2 setlinecap
1 LJ
3 LW
N
75 196.25 M
79.465 196.25 L
S
GR
GS
0.149 GC
2 setlinecap
1 LJ
3 LW
N
75 141 M
79.465 141 L
S
GR
GS
0.149 GC
2 setlinecap
1 LJ
3 LW
N
75 85.75 M
79.465 85.75 L
S
GR
GS
0.149 GC
2 setlinecap
1 LJ
3 LW
N
75 30.5 M
79.465 30.5 L
S
GR
GS
0.149 GC
2 setlinecap
1 LJ
3 LW
N
521.5 362 M
517.035 362 L
S
GR
GS
0.149 GC
2 setlinecap
1 LJ
3 LW
N
521.5 306.75 M
517.035 306.75 L
S
GR
GS
0.149 GC
2 setlinecap
1 LJ
3 LW
N
521.5 251.5 M
517.035 251.5 L
S
GR
GS
0.149 GC
2 setlinecap
1 LJ
3 LW
N
521.5 196.25 M
517.035 196.25 L
S
GR
GS
0.149 GC
2 setlinecap
1 LJ
3 LW
N
521.5 141 M
517.035 141 L
S
GR
GS
0.149 GC
2 setlinecap
1 LJ
3 LW
N
521.5 85.75 M
517.035 85.75 L
S
GR
GS
0.149 GC
2 setlinecap
1 LJ
3 LW
N
521.5 30.5 M
517.035 30.5 L
S
GR
GS
[1 0 0 1 70.6 361.99985] CT
0.149 GC
/Helvetica 12 F
GS
[1 0 0 1 0 0] CT
-24 4.5 moveto 
1 -1 scale
(0.66) t 
GR
GR
GS
[1 0 0 1 70.6 306.74991] CT
0.149 GC
/Helvetica 12 F
GS
[1 0 0 1 0 0] CT
-24 4.5 moveto 
1 -1 scale
(0.67) t 
GR
GR
GS
[1 0 0 1 70.6 251.49995] CT
0.149 GC
/Helvetica 12 F
GS
[1 0 0 1 0 0] CT
-24 4.5 moveto 
1 -1 scale
(0.68) t 
GR
GR
GS
[1 0 0 1 70.6 196.25002] CT
0.149 GC
/Helvetica 12 F
GS
[1 0 0 1 0 0] CT
-24 4.5 moveto 
1 -1 scale
(0.69) t 
GR
GR
GS
[1 0 0 1 70.6 141.00006] CT
0.149 GC
/Helvetica 12 F
GS
[1 0 0 1 0 0] CT
-17 4.5 moveto 
1 -1 scale
(0.7) t 
GR
GR
GS
[1 0 0 1 70.6 85.75012] CT
0.149 GC
/Helvetica 12 F
GS
[1 0 0 1 0 0] CT
-24 4.5 moveto 
1 -1 scale
(0.71) t 
GR
GR
GS
[1 0 0 1 70.6 30.49984] CT
0.149 GC
/Helvetica 12 F
GS
[1 0 0 1 0 0] CT
-24 4.5 moveto 
1 -1 scale
(0.72) t 
GR
GR
GS
[0 -1 1 0 44.1 196.24968] CT
0.149 GC
/Helvetica 13.2 F
GS
[1 0 0 1 0 0] CT
-42.5 -3 moveto 
1 -1 scale
(Cache hit ratio) t 
GR
GR
GS
0 0.447 0.741 RC
1 LJ
3 LW
N
75 307.355 M
124.611 290.303 L
174.222 271.408 L
223.833 250.333 L
273.444 226.651 L
323.056 199.806 L
372.667 169.069 L
422.278 133.455 L
471.889 91.599 L
521.5 41.543 L
S
GR
GS
0.851 0.325 0.098 RC
[12 12] 0 setdash
2 LJ
3 LW
N
75 307.942 M
124.611 292.319 L
174.222 270.796 L
223.833 250.177 L
273.444 224.952 L
323.056 199.992 L
372.667 170.429 L
422.278 135.262 L
471.889 91.463 L
521.5 39.561 L
S
GR
GS
1 GC
N
413 296 M
413 265.5 L
506 265.5 L
506 296 L
cp
f
GR
GS
[1 0 0 1 450 274] CT
/Helvetica 10.8 F
GS
[1 0 0 1 0 0] CT
0 4 moveto 
1 -1 scale
(Analytic) t 
GR
GR
GS
0 0.447 0.741 RC
1 LJ
3 LW
N
417 274 M
447 274 L
S
GR
GS
[1 0 0 1 450 287.5] CT
/Helvetica 10.8 F
GS
[1 0 0 1 0 0] CT
0 4 moveto 
1 -1 scale
(Simulation) t 
GR
GR
GS
0.851 0.325 0.098 RC
[12 12] 0 setdash
2 LJ
3 LW
N
417 287.5 M
447 287.5 L
S
GR
GS
0.149 GC
10.0 ML
3 LW
N
413 296 M
413 265.5 L
506 265.5 L
506 296 L
cp
S
GR
%%Trailer
%%Pages: 1
%%EOF
