%!PS-Adobe-3.0 EPSF-3.0
%%Creator: (MATLAB, The Mathworks, Inc. Version 9.1.0.441655 \(R2016b\). Operating System: Mac OS X)
%%Title: /Users/yuyinghao/research/simulations/cache_sharing_game/figures/expected_utility_unif.eps
%%CreationDate: 2018-05-03T21:49:05
%%Pages: (atend)
%%BoundingBox: 0 0 560 420
%%LanguageLevel: 3
%%EndComments
%%BeginProlog
%%BeginResource: procset (Apache XML Graphics Std ProcSet) 1.2 0
%%Version: 1.2 0
%%Copyright: (Copyright 2001-2003,2010 The Apache Software Foundation. License terms: http://www.apache.org/licenses/LICENSE-2.0)
/bd{bind def}bind def
/ld{load def}bd
/GR/grestore ld
/M/moveto ld
/LJ/setlinejoin ld
/C/curveto ld
/f/fill ld
/LW/setlinewidth ld
/GC/setgray ld
/t/show ld
/N/newpath ld
/CT/concat ld
/cp/closepath ld
/S/stroke ld
/L/lineto ld
/CC/setcmykcolor ld
/A/ashow ld
/GS/gsave ld
/RC/setrgbcolor ld
/RM/rmoveto ld
/ML/setmiterlimit ld
/re {4 2 roll M
1 index 0 rlineto
0 exch rlineto
neg 0 rlineto
cp } bd
/_ctm matrix def
/_tm matrix def
/BT { _ctm currentmatrix pop matrix _tm copy pop 0 0 moveto } bd
/ET { _ctm setmatrix } bd
/iTm { _ctm setmatrix _tm concat } bd
/Tm { _tm astore pop iTm 0 0 moveto } bd
/ux 0.0 def
/uy 0.0 def
/F {
  /Tp exch def
  /Tf exch def
  Tf findfont Tp scalefont setfont
  /cf Tf def  /cs Tp def
} bd
/ULS {currentpoint /uy exch def /ux exch def} bd
/ULE {
  /Tcx currentpoint pop def
  gsave
  newpath
  cf findfont cs scalefont dup
  /FontMatrix get 0 get /Ts exch def /FontInfo get dup
  /UnderlinePosition get Ts mul /To exch def
  /UnderlineThickness get Ts mul /Tt exch def
  ux uy To add moveto  Tcx uy To add lineto
  Tt setlinewidth stroke
  grestore
} bd
/OLE {
  /Tcx currentpoint pop def
  gsave
  newpath
  cf findfont cs scalefont dup
  /FontMatrix get 0 get /Ts exch def /FontInfo get dup
  /UnderlinePosition get Ts mul /To exch def
  /UnderlineThickness get Ts mul /Tt exch def
  ux uy To add cs add moveto Tcx uy To add cs add lineto
  Tt setlinewidth stroke
  grestore
} bd
/SOE {
  /Tcx currentpoint pop def
  gsave
  newpath
  cf findfont cs scalefont dup
  /FontMatrix get 0 get /Ts exch def /FontInfo get dup
  /UnderlinePosition get Ts mul /To exch def
  /UnderlineThickness get Ts mul /Tt exch def
  ux uy To add cs 10 mul 26 idiv add moveto Tcx uy To add cs 10 mul 26 idiv add lineto
  Tt setlinewidth stroke
  grestore
} bd
/QT {
/Y22 exch store
/X22 exch store
/Y21 exch store
/X21 exch store
currentpoint
/Y21 load 2 mul add 3 div exch
/X21 load 2 mul add 3 div exch
/X21 load 2 mul /X22 load add 3 div
/Y21 load 2 mul /Y22 load add 3 div
/X22 load /Y22 load curveto
} bd
/SSPD {
dup length /d exch dict def
{
/v exch def
/k exch def
currentpagedevice k known {
/cpdv currentpagedevice k get def
v cpdv ne {
/upd false def
/nullv v type /nulltype eq def
/nullcpdv cpdv type /nulltype eq def
nullv nullcpdv or
{
/upd true def
} {
/sametype v type cpdv type eq def
sametype {
v type /arraytype eq {
/vlen v length def
/cpdvlen cpdv length def
vlen cpdvlen eq {
0 1 vlen 1 sub {
/i exch def
/obj v i get def
/cpdobj cpdv i get def
obj cpdobj ne {
/upd true def
exit
} if
} for
} {
/upd true def
} ifelse
} {
v type /dicttype eq {
v {
/dv exch def
/dk exch def
/cpddv cpdv dk get def
dv cpddv ne {
/upd true def
exit
} if
} forall
} {
/upd true def
} ifelse
} ifelse
} if
} ifelse
upd true eq {
d k v put
} if
} if
} if
} forall
d length 0 gt {
d setpagedevice
} if
} bd
/RE { % /NewFontName [NewEncodingArray] /FontName RE -
  findfont dup length dict begin
  {
    1 index /FID ne
    {def} {pop pop} ifelse
  } forall
  /Encoding exch def
  /FontName 1 index def
  currentdict definefont pop
  end
} bind def
%%EndResource
%%BeginResource: procset (Apache XML Graphics EPS ProcSet) 1.0 0
%%Version: 1.0 0
%%Copyright: (Copyright 2002-2003 The Apache Software Foundation. License terms: http://www.apache.org/licenses/LICENSE-2.0)
/BeginEPSF { %def
/b4_Inc_state save def         % Save state for cleanup
/dict_count countdictstack def % Count objects on dict stack
/op_count count 1 sub def      % Count objects on operand stack
userdict begin                 % Push userdict on dict stack
/showpage { } def              % Redefine showpage, { } = null proc
0 setgray 0 setlinecap         % Prepare graphics state
1 setlinewidth 0 setlinejoin
10 setmiterlimit [ ] 0 setdash newpath
/languagelevel where           % If level not equal to 1 then
{pop languagelevel             % set strokeadjust and
1 ne                           % overprint to their defaults.
{false setstrokeadjust false setoverprint
} if
} if
} bd
/EndEPSF { %def
count op_count sub {pop} repeat            % Clean up stacks
countdictstack dict_count sub {end} repeat
b4_Inc_state restore
} bd
%%EndResource
%FOPBeginFontDict
%%IncludeResource: font Courier-Bold
%%IncludeResource: font Helvetica
%%IncludeResource: font Courier-BoldOblique
%%IncludeResource: font Courier-Oblique
%%IncludeResource: font Times-Roman
%%IncludeResource: font Helvetica-BoldOblique
%%IncludeResource: font Helvetica-Bold
%%IncludeResource: font Helvetica-Oblique
%%IncludeResource: font Times-BoldItalic
%%IncludeResource: font Courier
%%IncludeResource: font Times-Italic
%%IncludeResource: font Times-Bold
%%IncludeResource: font Symbol
%%IncludeResource: font ZapfDingbats
%FOPEndFontDict
%%BeginResource: encoding WinAnsiEncoding
/WinAnsiEncoding [
/.notdef /.notdef /.notdef /.notdef /.notdef
/.notdef /.notdef /.notdef /.notdef /.notdef
/.notdef /.notdef /.notdef /.notdef /.notdef
/.notdef /.notdef /.notdef /.notdef /.notdef
/.notdef /.notdef /.notdef /.notdef /.notdef
/.notdef /.notdef /.notdef /.notdef /.notdef
/.notdef /.notdef /space /exclam /quotedbl
/numbersign /dollar /percent /ampersand /quotesingle
/parenleft /parenright /asterisk /plus /comma
/hyphen /period /slash /zero /one
/two /three /four /five /six
/seven /eight /nine /colon /semicolon
/less /equal /greater /question /at
/A /B /C /D /E
/F /G /H /I /J
/K /L /M /N /O
/P /Q /R /S /T
/U /V /W /X /Y
/Z /bracketleft /backslash /bracketright /asciicircum
/underscore /quoteleft /a /b /c
/d /e /f /g /h
/i /j /k /l /m
/n /o /p /q /r
/s /t /u /v /w
/x /y /z /braceleft /bar
/braceright /asciitilde /bullet /Euro /bullet
/quotesinglbase /florin /quotedblbase /ellipsis /dagger
/daggerdbl /circumflex /perthousand /Scaron /guilsinglleft
/OE /bullet /Zcaron /bullet /bullet
/quoteleft /quoteright /quotedblleft /quotedblright /bullet
/endash /emdash /asciitilde /trademark /scaron
/guilsinglright /oe /bullet /zcaron /Ydieresis
/space /exclamdown /cent /sterling /currency
/yen /brokenbar /section /dieresis /copyright
/ordfeminine /guillemotleft /logicalnot /sfthyphen /registered
/macron /degree /plusminus /twosuperior /threesuperior
/acute /mu /paragraph /middot /cedilla
/onesuperior /ordmasculine /guillemotright /onequarter /onehalf
/threequarters /questiondown /Agrave /Aacute /Acircumflex
/Atilde /Adieresis /Aring /AE /Ccedilla
/Egrave /Eacute /Ecircumflex /Edieresis /Igrave
/Iacute /Icircumflex /Idieresis /Eth /Ntilde
/Ograve /Oacute /Ocircumflex /Otilde /Odieresis
/multiply /Oslash /Ugrave /Uacute /Ucircumflex
/Udieresis /Yacute /Thorn /germandbls /agrave
/aacute /acircumflex /atilde /adieresis /aring
/ae /ccedilla /egrave /eacute /ecircumflex
/edieresis /igrave /iacute /icircumflex /idieresis
/eth /ntilde /ograve /oacute /ocircumflex
/otilde /odieresis /divide /oslash /ugrave
/uacute /ucircumflex /udieresis /yacute /thorn
/ydieresis
] def
%%EndResource
%FOPBeginFontReencode
/Courier-Bold findfont
dup length dict begin
  {1 index /FID ne {def} {pop pop} ifelse} forall
  /Encoding WinAnsiEncoding def
  currentdict
end
/Courier-Bold exch definefont pop
/Helvetica findfont
dup length dict begin
  {1 index /FID ne {def} {pop pop} ifelse} forall
  /Encoding WinAnsiEncoding def
  currentdict
end
/Helvetica exch definefont pop
/Courier-BoldOblique findfont
dup length dict begin
  {1 index /FID ne {def} {pop pop} ifelse} forall
  /Encoding WinAnsiEncoding def
  currentdict
end
/Courier-BoldOblique exch definefont pop
/Courier-Oblique findfont
dup length dict begin
  {1 index /FID ne {def} {pop pop} ifelse} forall
  /Encoding WinAnsiEncoding def
  currentdict
end
/Courier-Oblique exch definefont pop
/Times-Roman findfont
dup length dict begin
  {1 index /FID ne {def} {pop pop} ifelse} forall
  /Encoding WinAnsiEncoding def
  currentdict
end
/Times-Roman exch definefont pop
/Helvetica-BoldOblique findfont
dup length dict begin
  {1 index /FID ne {def} {pop pop} ifelse} forall
  /Encoding WinAnsiEncoding def
  currentdict
end
/Helvetica-BoldOblique exch definefont pop
/Helvetica-Bold findfont
dup length dict begin
  {1 index /FID ne {def} {pop pop} ifelse} forall
  /Encoding WinAnsiEncoding def
  currentdict
end
/Helvetica-Bold exch definefont pop
/Helvetica-Oblique findfont
dup length dict begin
  {1 index /FID ne {def} {pop pop} ifelse} forall
  /Encoding WinAnsiEncoding def
  currentdict
end
/Helvetica-Oblique exch definefont pop
/Times-BoldItalic findfont
dup length dict begin
  {1 index /FID ne {def} {pop pop} ifelse} forall
  /Encoding WinAnsiEncoding def
  currentdict
end
/Times-BoldItalic exch definefont pop
/Courier findfont
dup length dict begin
  {1 index /FID ne {def} {pop pop} ifelse} forall
  /Encoding WinAnsiEncoding def
  currentdict
end
/Courier exch definefont pop
/Times-Italic findfont
dup length dict begin
  {1 index /FID ne {def} {pop pop} ifelse} forall
  /Encoding WinAnsiEncoding def
  currentdict
end
/Times-Italic exch definefont pop
/Times-Bold findfont
dup length dict begin
  {1 index /FID ne {def} {pop pop} ifelse} forall
  /Encoding WinAnsiEncoding def
  currentdict
end
/Times-Bold exch definefont pop
%FOPEndFontReencode
%%EndProlog
%%Page: 1 1
%%PageBoundingBox: 0 0 560 420
%%BeginPageSetup
[1 0 0 -1 0 420] CT
%%EndPageSetup
GS
1 GC
N
0 0 560 420 re
f
GR
GS
1 GC
N
0 0 560 420 re
f
GR
GS
1 GC
N
73 374 M
507 374 L
507 31.5 L
73 31.5 L
cp
f
GR
GS
0.873 GC
1 LJ
3 LW
N
73 374 M
73 31.5 L
S
GR
GS
0.873 GC
1 LJ
3 LW
N
121.222 374 M
121.222 31.5 L
S
GR
GS
0.873 GC
1 LJ
3 LW
N
169.444 374 M
169.444 31.5 L
S
GR
GS
0.873 GC
1 LJ
3 LW
N
217.667 374 M
217.667 31.5 L
S
GR
GS
0.873 GC
1 LJ
3 LW
N
265.889 374 M
265.889 31.5 L
S
GR
GS
0.873 GC
1 LJ
3 LW
N
314.111 374 M
314.111 31.5 L
S
GR
GS
0.873 GC
1 LJ
3 LW
N
362.333 374 M
362.333 31.5 L
S
GR
GS
0.873 GC
1 LJ
3 LW
N
410.556 374 M
410.556 31.5 L
S
GR
GS
0.873 GC
1 LJ
3 LW
N
458.778 374 M
458.778 31.5 L
S
GR
GS
0.873 GC
1 LJ
3 LW
N
507 374 M
507 31.5 L
S
GR
GS
0.873 GC
1 LJ
3 LW
N
507 374 M
73 374 L
S
GR
GS
0.873 GC
1 LJ
3 LW
N
507 325.071 M
73 325.071 L
S
GR
GS
0.873 GC
1 LJ
3 LW
N
507 276.143 M
73 276.143 L
S
GR
GS
0.873 GC
1 LJ
3 LW
N
507 227.214 M
73 227.214 L
S
GR
GS
0.873 GC
1 LJ
3 LW
N
507 178.286 M
73 178.286 L
S
GR
GS
0.873 GC
1 LJ
3 LW
N
507 129.357 M
73 129.357 L
S
GR
GS
0.873 GC
1 LJ
3 LW
N
507 80.429 M
73 80.429 L
S
GR
GS
0.873 GC
1 LJ
3 LW
N
507 31.5 M
73 31.5 L
S
GR
GS
0.149 GC
2 setlinecap
1 LJ
3 LW
N
73 374 M
507 374 L
S
GR
GS
0.149 GC
2 setlinecap
1 LJ
3 LW
N
73 31.5 M
507 31.5 L
S
GR
GS
0.149 GC
2 setlinecap
1 LJ
3 LW
N
73 374 M
73 369.66 L
S
GR
GS
0.149 GC
2 setlinecap
1 LJ
3 LW
N
121.222 374 M
121.222 369.66 L
S
GR
GS
0.149 GC
2 setlinecap
1 LJ
3 LW
N
169.444 374 M
169.444 369.66 L
S
GR
GS
0.149 GC
2 setlinecap
1 LJ
3 LW
N
217.667 374 M
217.667 369.66 L
S
GR
GS
0.149 GC
2 setlinecap
1 LJ
3 LW
N
265.889 374 M
265.889 369.66 L
S
GR
GS
0.149 GC
2 setlinecap
1 LJ
3 LW
N
314.111 374 M
314.111 369.66 L
S
GR
GS
0.149 GC
2 setlinecap
1 LJ
3 LW
N
362.333 374 M
362.333 369.66 L
S
GR
GS
0.149 GC
2 setlinecap
1 LJ
3 LW
N
410.556 374 M
410.556 369.66 L
S
GR
GS
0.149 GC
2 setlinecap
1 LJ
3 LW
N
458.778 374 M
458.778 369.66 L
S
GR
GS
0.149 GC
2 setlinecap
1 LJ
3 LW
N
507 374 M
507 369.66 L
S
GR
GS
0.149 GC
2 setlinecap
1 LJ
3 LW
N
73 31.5 M
73 35.84 L
S
GR
GS
0.149 GC
2 setlinecap
1 LJ
3 LW
N
121.222 31.5 M
121.222 35.84 L
S
GR
GS
0.149 GC
2 setlinecap
1 LJ
3 LW
N
169.444 31.5 M
169.444 35.84 L
S
GR
GS
0.149 GC
2 setlinecap
1 LJ
3 LW
N
217.667 31.5 M
217.667 35.84 L
S
GR
GS
0.149 GC
2 setlinecap
1 LJ
3 LW
N
265.889 31.5 M
265.889 35.84 L
S
GR
GS
0.149 GC
2 setlinecap
1 LJ
3 LW
N
314.111 31.5 M
314.111 35.84 L
S
GR
GS
0.149 GC
2 setlinecap
1 LJ
3 LW
N
362.333 31.5 M
362.333 35.84 L
S
GR
GS
0.149 GC
2 setlinecap
1 LJ
3 LW
N
410.556 31.5 M
410.556 35.84 L
S
GR
GS
0.149 GC
2 setlinecap
1 LJ
3 LW
N
458.778 31.5 M
458.778 35.84 L
S
GR
GS
0.149 GC
2 setlinecap
1 LJ
3 LW
N
507 31.5 M
507 35.84 L
S
GR
GS
[1 0 0 1 73 378.40018] CT
0.149 GC
/Helvetica 12 F
GS
[1 0 0 1 0 0] CT
-3.5 12 moveto 
1 -1 scale
(1) t 
GR
GR
GS
[1 0 0 1 121.22222 378.40018] CT
0.149 GC
/Helvetica 12 F
GS
[1 0 0 1 0 0] CT
-3.5 12 moveto 
1 -1 scale
(2) t 
GR
GR
GS
[1 0 0 1 169.44444 378.40018] CT
0.149 GC
/Helvetica 12 F
GS
[1 0 0 1 0 0] CT
-3.5 12 moveto 
1 -1 scale
(3) t 
GR
GR
GS
[1 0 0 1 217.66667 378.40018] CT
0.149 GC
/Helvetica 12 F
GS
[1 0 0 1 0 0] CT
-3.5 12 moveto 
1 -1 scale
(4) t 
GR
GR
GS
[1 0 0 1 265.88889 378.40018] CT
0.149 GC
/Helvetica 12 F
GS
[1 0 0 1 0 0] CT
-3.5 12 moveto 
1 -1 scale
(5) t 
GR
GR
GS
[1 0 0 1 314.11111 378.40018] CT
0.149 GC
/Helvetica 12 F
GS
[1 0 0 1 0 0] CT
-3.5 12 moveto 
1 -1 scale
(6) t 
GR
GR
GS
[1 0 0 1 362.33334 378.40018] CT
0.149 GC
/Helvetica 12 F
GS
[1 0 0 1 0 0] CT
-3.5 12 moveto 
1 -1 scale
(7) t 
GR
GR
GS
[1 0 0 1 410.55554 378.40018] CT
0.149 GC
/Helvetica 12 F
GS
[1 0 0 1 0 0] CT
-3.5 12 moveto 
1 -1 scale
(8) t 
GR
GR
GS
[1 0 0 1 458.77777 378.40018] CT
0.149 GC
/Helvetica 12 F
GS
[1 0 0 1 0 0] CT
-3.5 12 moveto 
1 -1 scale
(9) t 
GR
GR
GS
[1 0 0 1 507 378.40018] CT
0.149 GC
/Helvetica 12 F
GS
[1 0 0 1 0 0] CT
-7 12 moveto 
1 -1 scale
(10) t 
GR
GR
GS
[1 0 0 1 290.00021 393.90009] CT
0.149 GC
/Helvetica 13.2 F
GS
[1 0 0 1 0 0] CT
-100.5 13 moveto 
1 -1 scale
(Users ordered by action sequence) t 
GR
GR
GS
0.149 GC
2 setlinecap
1 LJ
3 LW
N
73 374 M
73 31.5 L
S
GR
GS
0.149 GC
2 setlinecap
1 LJ
3 LW
N
507 374 M
507 31.5 L
S
GR
GS
0.149 GC
2 setlinecap
1 LJ
3 LW
N
73 374 M
77.34 374 L
S
GR
GS
0.149 GC
2 setlinecap
1 LJ
3 LW
N
73 325.071 M
77.34 325.071 L
S
GR
GS
0.149 GC
2 setlinecap
1 LJ
3 LW
N
73 276.143 M
77.34 276.143 L
S
GR
GS
0.149 GC
2 setlinecap
1 LJ
3 LW
N
73 227.214 M
77.34 227.214 L
S
GR
GS
0.149 GC
2 setlinecap
1 LJ
3 LW
N
73 178.286 M
77.34 178.286 L
S
GR
GS
0.149 GC
2 setlinecap
1 LJ
3 LW
N
73 129.357 M
77.34 129.357 L
S
GR
GS
0.149 GC
2 setlinecap
1 LJ
3 LW
N
73 80.429 M
77.34 80.429 L
S
GR
GS
0.149 GC
2 setlinecap
1 LJ
3 LW
N
73 31.5 M
77.34 31.5 L
S
GR
GS
0.149 GC
2 setlinecap
1 LJ
3 LW
N
507 374 M
502.66 374 L
S
GR
GS
0.149 GC
2 setlinecap
1 LJ
3 LW
N
507 325.071 M
502.66 325.071 L
S
GR
GS
0.149 GC
2 setlinecap
1 LJ
3 LW
N
507 276.143 M
502.66 276.143 L
S
GR
GS
0.149 GC
2 setlinecap
1 LJ
3 LW
N
507 227.214 M
502.66 227.214 L
S
GR
GS
0.149 GC
2 setlinecap
1 LJ
3 LW
N
507 178.286 M
502.66 178.286 L
S
GR
GS
0.149 GC
2 setlinecap
1 LJ
3 LW
N
507 129.357 M
502.66 129.357 L
S
GR
GS
0.149 GC
2 setlinecap
1 LJ
3 LW
N
507 80.429 M
502.66 80.429 L
S
GR
GS
0.149 GC
2 setlinecap
1 LJ
3 LW
N
507 31.5 M
502.66 31.5 L
S
GR
GS
[1 0 0 1 68.6 373.99994] CT
0.149 GC
/Helvetica 12 F
GS
[1 0 0 1 0 0] CT
-24 4.5 moveto 
1 -1 scale
(0.62) t 
GR
GR
GS
[1 0 0 1 68.6 325.07144] CT
0.149 GC
/Helvetica 12 F
GS
[1 0 0 1 0 0] CT
-31 4.5 moveto 
1 -1 scale
(0.625) t 
GR
GR
GS
[1 0 0 1 68.6 276.14291] CT
0.149 GC
/Helvetica 12 F
GS
[1 0 0 1 0 0] CT
-24 4.5 moveto 
1 -1 scale
(0.63) t 
GR
GR
GS
[1 0 0 1 68.6 227.21439] CT
0.149 GC
/Helvetica 12 F
GS
[1 0 0 1 0 0] CT
-31 4.5 moveto 
1 -1 scale
(0.635) t 
GR
GR
GS
[1 0 0 1 68.6 178.28586] CT
0.149 GC
/Helvetica 12 F
GS
[1 0 0 1 0 0] CT
-24 4.5 moveto 
1 -1 scale
(0.64) t 
GR
GR
GS
[1 0 0 1 68.6 129.35733] CT
0.149 GC
/Helvetica 12 F
GS
[1 0 0 1 0 0] CT
-31 4.5 moveto 
1 -1 scale
(0.645) t 
GR
GR
GS
[1 0 0 1 68.6 80.4288] CT
0.149 GC
/Helvetica 12 F
GS
[1 0 0 1 0 0] CT
-24 4.5 moveto 
1 -1 scale
(0.65) t 
GR
GR
GS
[1 0 0 1 68.6 31.50028] CT
0.149 GC
/Helvetica 12 F
GS
[1 0 0 1 0 0] CT
-31 4.5 moveto 
1 -1 scale
(0.655) t 
GR
GR
GS
[0 -1 1 0 35.1 202.75012] CT
0.149 GC
/Helvetica 13.2 F
GS
[1 0 0 1 0 0] CT
-42.5 -3 moveto 
1 -1 scale
(Cache hit ratio) t 
GR
GR
GS
0 0.447 0.741 RC
1 LJ
3 LW
N
73 337.183 M
121.222 322.496 L
169.444 305.83 L
217.667 286.754 L
265.889 264.705 L
314.111 238.929 L
362.333 208.396 L
410.556 171.651 L
458.778 126.587 L
507 70.018 L
S
GR
GS
0.851 0.325 0.098 RC
[12 12] 0 setdash
2 LJ
3 LW
N
73 335.917 M
121.222 315.859 L
169.444 303.036 L
217.667 287.546 L
265.889 262.332 L
314.111 241.037 L
362.333 207.795 L
410.556 170.496 L
458.778 124.388 L
507 67.155 L
S
GR
GS
1 GC
N
372.5 306.5 M
372.5 276 L
465.5 276 L
465.5 306.5 L
cp
f
GR
GS
[1 0 0 1 409.5 284.5] CT
/Helvetica 10.8 F
GS
[1 0 0 1 0 0] CT
0 4 moveto 
1 -1 scale
(Analytic) t 
GR
GR
GS
0 0.447 0.741 RC
1 LJ
3 LW
N
376.5 284.5 M
406.5 284.5 L
S
GR
GS
[1 0 0 1 409.5 298] CT
/Helvetica 10.8 F
GS
[1 0 0 1 0 0] CT
0 4 moveto 
1 -1 scale
(Simulation) t 
GR
GR
GS
0.851 0.325 0.098 RC
[12 12] 0 setdash
2 LJ
3 LW
N
376.5 298 M
406.5 298 L
S
GR
GS
0.149 GC
10.0 ML
3 LW
N
372.5 306.5 M
372.5 276 L
465.5 276 L
465.5 306.5 L
cp
S
GR
%%Trailer
%%Pages: 1
%%EOF
