0.951534742543
0.949463891044
0.950632333825
0.946079541707
0.953712349994
0.950030511859
0.951865470155
0.951520547809
0.952007439984
0.950714355939
0.946718621334
0.951104742969
0.952637920674
0.951999765802
0.953155609852
0.953796125256
0.9474894671
0.94948473053
0.949433710704
0.95191652289
0.950988688785
0.95039994626
0.953325686669
0.950763804482
0.951299580598
0.950801371605
0.949985967647
0.949865245892
0.949319633876
0.948032847801
0.952835285936
0.949705312701
0.952078374258
0.949093071034
0.950375274798
0.94750749943
0.944093603207
0.953117043309
0.945772524978
0.951365786938
0.949073345002
0.954035563096
0.95149687818
0.95057360434
0.952415547216
0.951473772518
0.948948562157
0.953183925084
0.948669172643
0.953908502428
